Place,Name,Best3SquatKg,Best3BenchKg,Best3DeadliftKg,TotalKg,Event,Equipment,WeightClassKg,BodyweightKg,Sex,Division,DeadliftEquipment
1,Ed Coan,442.5,257.5,322.5,1022.5,SBD,Single-ply,,,M,Open,Raw
2,Art LaBare,365,260,332.5,957.5,SBD,Single-ply,,,M,Open,
3,Tony Saunders,420,215,300,935,SBD,Single-ply,,,M,Open,
4,Anthony Clark,340,275,300,915,SBD,Single-ply,,,M,Open,
5,Tim Bruner,320,210,300,830,SBD,Single-ply,,,M,Open,
