Division,WeightClassKg,Place,Name,Team,BodyweightKg,Best3SquatKg,Best3BenchKg,Best3DeadliftKg,TotalKg,Equipment,Event,Sex
Girls,44.23,1,Rhema Orta,Port Lavaca Calhoun,41.64,117.93,58.97,124.74,301.64,Single-ply,SBD,F
Girls,47.85,1,Present May,Port Lavaca Calhoun,47.85,133.81,63.5,127.01,324.32,Single-ply,SBD,F
Girls,47.85,2,Salma Anaya-Martinez,Port Lavaca Calhoun,47.63,108.86,49.9,106.59,265.35,Single-ply,SBD,F
Girls,47.85,3,Christina Varela,Alvin,46.49,90.72,54.43,83.91,229.06,Single-ply,SBD,F
Girls,47.85,4,Paloma Garcia,Alvin,47.4,92.99,40.82,92.99,226.8,Single-ply,SBD,F
Girls,51.94,1,Crystalvan Phan,Dickinson,51.48,102.06,40.82,102.06,244.94,Single-ply,SBD,F
Girls,56.02,1,Danielle Bacon,Port Lavaca Calhoun,53.75,154.22,90.72,154.22,399.16,Single-ply,SBD,F
Girls,56.02,2,Karli Kalischko,Alvin,55.52,90.72,47.63,99.79,238.14,Single-ply,SBD,F
Girls,56.02,3,Briana Faicloth,Alvin,53.07,72.57,31.75,90.72,195.04,Single-ply,SBD,F
Girls,56.02,DQ,Agustina Villarreal,Alvin,55.79,,,,,Single-ply,SBD,F
Girls,56.02,DQ,Bailey English,Beaumont Ozen,53.25,,,,,Single-ply,SBD,F
Girls,56.02,DQ,Chelsey Wood,Port Lavaca Calhoun,54.52,,,,,Single-ply,SBD,F
Girls,60.1,1,Skyleigh Sears,Port Lavaca Calhoun,56.15,161.03,77.11,170.1,408.23,Single-ply,SBD,F
Girls,60.1,2,Tessa Valdez,Port Lavaca Calhoun,56.93,136.08,58.97,131.54,326.59,Single-ply,SBD,F
Girls,60.1,3,Josephine Silva,Port Lavaca Calhoun,58.06,131.54,68.04,127.01,326.59,Single-ply,SBD,F
Girls,60.1,4,Karina Recendez,Alvin,58.06,102.06,40.82,102.06,244.94,Single-ply,SBD,F
Girls,60.1,5,Nuhoang Phan,Dickinson,58.6,92.99,40.82,102.06,235.87,Single-ply,SBD,F
Girls,60.1,6,Tyla Jackson,Beaumont Ozen,,83.91,47.63,95.25,226.8,Single-ply,SBD,F
Girls,60.1,7,Hannah Seamend,Danbury,57.33,79.38,45.36,97.52,222.26,Single-ply,SBD,F
Girls,60.1,8,Emily Rubio,Dickinson,56.25,79.38,36.29,92.99,208.65,Single-ply,SBD,F
Girls,67.36,1,Hailey Nichols,Port Lavaca Calhoun,65.86,163.29,74.84,176.9,415.04,Single-ply,SBD,F
Girls,67.36,2,Sara Persons,Alvin,62.37,120.2,65.77,122.47,308.44,Single-ply,SBD,F
Girls,67.36,3,Abigail Etzler,Port Lavaca Calhoun,65.5,120.2,61.23,124.74,306.17,Single-ply,SBD,F
Girls,67.36,4,Taylor Chapman,Alvin,,99.79,58.97,106.59,265.35,Single-ply,SBD,F
Girls,67.36,5,Angelica Avalos,Alvin,61.69,102.06,54.43,108.86,265.35,Single-ply,SBD,F
Girls,67.36,6,Raeann Hernandez,Alvin,65.95,86.18,43.09,120.2,249.48,Single-ply,SBD,F
Girls,67.36,7,Camila Recendez,Alvin,66,97.52,36.29,113.4,247.21,Single-ply,SBD,F
Girls,67.36,8,Haley Kohn,Danbury,62.78,97.52,45.36,92.99,235.87,Single-ply,SBD,F
Girls,67.36,9,Jacie DiSalvo,Dickinson,61.69,95.25,36.29,95.25,226.8,Single-ply,SBD,F
Girls,67.36,10,Nancy Meza,Alvin,63.73,77.11,38.56,104.33,219.99,Single-ply,SBD,F
Girls,67.36,11,Kayanie Lastice,Dickinson,67.13,79.38,31.75,88.45,199.58,Single-ply,SBD,F
Girls,75.07,1,Erica Garcia,Port Lavaca Calhoun,69.4,165.56,77.11,156.49,399.16,Single-ply,SBD,F
Girls,75.07,2,Bobbie Cooksie,Pearland,73.94,149.69,83.91,151.95,385.55,Single-ply,SBD,F
Girls,75.07,3,Julissa Recendez,Alvin,74.62,138.35,63.5,149.69,351.53,Single-ply,SBD,F
Girls,75.07,4,Anaiya Darkins,Beaumont Central,69.04,56.7,40.82,102.06,199.58,Single-ply,SBD,F
Girls,75.07,DQ,Kayla Simmons,Port Neches-Groves,70.99,90.72,54.43,,,Single-ply,SBD,F
Girls,82.33,1,Karina Macias,Alvin,76.57,136.08,56.7,145.15,337.93,Single-ply,SBD,F
Girls,82.33,2,Stevie Goodman,Alvin,81.19,99.79,58.97,102.06,260.82,Single-ply,SBD,F
Girls,82.33,3,Tamara Gonzales,Alvin,78.7,77.11,38.56,86.18,201.85,Single-ply,SBD,F
Girls,82.33,DQ,Madelynn Gustafson,Dickinson,81.56,90.72,,,,Single-ply,SBD,F
Girls,90.04,1,Savannah Roberts,Port Neches-Groves,83.37,74.84,47.63,90.72,213.19,Single-ply,SBD,F
Girls,100.02,1,Halie Guajardo,Port Lavaca Calhoun,95.48,183.7,68.04,156.49,408.23,Single-ply,SBD,F
Girls,100.02,2,Daniella Contreras,Alvin,95.62,147.42,68.04,129.27,344.73,Single-ply,SBD,F
Girls,100.02,3,Trinity Ruiz,Alvin,97.25,136.08,68.04,117.93,322.05,Single-ply,SBD,F
Girls,100.02,4,Kylie Albritton,Pearland,95.44,124.74,61.23,102.06,288.03,Single-ply,SBD,F
Girls,100.02,5,Ashanti Robinson,Dickinson,98.16,90.72,63.5,124.74,278.96,Single-ply,SBD,F
Girls,100.02,6,Zabrina Perales,Port Neches-Groves,95.48,99.79,47.63,92.99,240.4,Single-ply,SBD,F
Girls,100.02,7,Maile Ramirez,Alvin,98.66,86.18,45.36,90.72,222.26,Single-ply,SBD,F
Girls,100.02,DQ,Annah Riley,Port Neches-Groves,94.08,,,,,Single-ply,SBD,F
Girls,117.71,1,Hayli Pennington,Alvin,106.96,151.95,63.5,111.13,326.59,Single-ply,SBD,F
Girls,117.71,2,Jalecia Myles,Dickinson,108.64,122.47,49.9,117.93,290.3,Single-ply,SBD,F
Girls,117.71+,1,Belen Almader,Alvin,123.38,129.27,61.23,120.2,310.71,Single-ply,SBD,F
Girls,117.71+,2,Maria Limon,Alvin,122.2,129.27,61.23,108.86,299.37,Single-ply,SBD,F
Girls,,NS,De'Asia Nickerson,Beaumont Ozen,,,,,,Single-ply,SBD,F
Girls,,NS,Diamond Mayfield,Beaumont Ozen,,,,,,Single-ply,SBD,F
Girls,,NS,Hannah Chavis,Beaumont Ozen,,,,,,Single-ply,SBD,F
Girls,,NS,Ishianna Jones,Beaumont Ozen,,,,,,Single-ply,SBD,F
Girls,,NS,Kelsey Rogers,Beaumont Ozen,,,,,,Single-ply,SBD,F
Girls,,NS,Alexia Aguirre,Dickinson,,,,,,Single-ply,SBD,F
Girls,,NS,Katia Davis,Beaumont Central,,,,,,Single-ply,SBD,F
Girls,,NS,Shadai Sheriff,Beaumont Central,,,,,,Single-ply,SBD,F
Girls,,NS,Jayla Sylvester,Beaumont Central,,,,,,Single-ply,SBD,F
Girls,,NS,Jakayla Jackson,Beaumont Central,,,,,,Single-ply,SBD,F
Girls,,NS,Anna Trammell,Danbury,,,,,,Single-ply,SBD,F
Girls,,NS,Jesslyn Garcia,Alvin,,,,,,Single-ply,SBD,F
