Division,WeightClassKg,Place,Name,Team,BodyweightKg,Best3SquatKg,Best3BenchKg,Best3DeadliftKg,TotalKg,Equipment,Event,Sex
Boys,51.71,1,Carlos Reynoso,McKinney Boyd,50.98,131.54,70.31,145.15,347,Single-ply,SBD,M
Boys,51.71,2,Misael Guzman,Mount Vernon,51.44,113.4,63.5,117.93,294.84,Single-ply,SBD,M
Boys,51.71,3,Jesse Peacock,Diana New Diana,49.35,106.59,63.5,108.86,278.96,Single-ply,SBD,M
Boys,55.79,4,Michael Slack,Whitewright,51.89,97.52,65.77,104.33,267.62,Single-ply,SBD,M
Boys,51.71,5,Martin Angeles,Cumby,51.53,92.99,52.16,106.59,251.74,Single-ply,SBD,M
Boys,51.71,6,Hogan Goodson,Pattonville Prairiland,51.35,83.91,52.16,102.06,238.14,Single-ply,SBD,M
Boys,55.79,1,Darius Rivera,Princeton,55.52,181.44,99.79,190.51,471.74,Single-ply,SBD,M
Boys,55.79,2,Dillan Cromeens,Nevada Community,55.52,142.88,79.38,145.15,367.41,Single-ply,SBD,M
Boys,59.87,3,Dane Gallagher,Lone Oak,55.97,124.74,65.77,140.61,331.12,Single-ply,SBD,M
Boys,55.79,4,Corbin Craver,Mount Vernon,52.8,117.93,70.31,138.35,326.59,Single-ply,SBD,M
Boys,55.79,5,Alex Rushing,Whitewright,53.25,117.93,70.31,122.47,310.71,Single-ply,SBD,M
Boys,55.79,6,Cole Owens,Bonham,54.61,113.4,61.23,120.2,294.84,Single-ply,SBD,M
Boys,55.79,7,Fernando Salas,Farmersville,55.79,102.06,79.38,108.86,290.3,Single-ply,SBD,M
Boys,67.13,1,Gage Baughman,Winnsboro,60.06,115.67,92.99,147.42,356.07,Single-ply,SBD,M
Boys,67.13,2,Noah Craver,Mount Vernon,60.06,117.93,81.65,145.15,344.73,Single-ply,SBD,M
Boys,67.13,3,Kaleb Moore,Caddo Mills,59.96,122.47,68.04,147.42,337.93,Single-ply,SBD,M
Boys,59.87,4,Lane Simpson,Bonham,59.78,113.4,74.84,138.35,326.59,Single-ply,SBD,M
Boys,67.13,5,Micah Tilley,Winnsboro,60.06,117.93,72.57,124.74,315.25,Single-ply,SBD,M
Boys,59.87,6,James Kirkman,Mount Vernon,56.52,120.2,63.5,113.4,297.1,Single-ply,SBD,M
Boys,59.87,7,Kendall Shaw,Whitewright,59.15,113.4,65.77,115.67,294.84,Single-ply,SBD,M
Boys,59.87,8,Taylor Hale,Cumby,59.06,92.99,47.63,136.08,276.69,Single-ply,SBD,M
Boys,67.13,1,Josh Boone,Winnsboro,66.59,233.6,129.27,181.44,544.31,Single-ply,SBD,M
Boys,67.13,2,Jeremey Wilson,Tyler,66.95,204.12,106.59,181.44,492.15,Single-ply,SBD,M
Boys,67.13,3,Logan Johnson,Lone Oak,62.96,151.95,95.25,176.9,424.11,Single-ply,SBD,M
Boys,74.84,4,Jacob Tillett,Caddo Mills,67.31,165.56,81.65,163.29,410.5,Single-ply,SBD,M
Boys,67.13,5,Lucas Pinnell,Winnsboro,66.5,147.42,88.45,170.1,405.97,Single-ply,SBD,M
Boys,67.13,6,Miles Pearson,Diana New Diana,64.23,129.27,97.52,165.56,392.36,Single-ply,SBD,M
Boys,67.13,7,Rodrigo Castillo,Farmersville,66.22,147.42,81.65,158.76,387.82,Single-ply,SBD,M
Boys,74.84,8,De'Juan Beal,Tyler,67.31,165.56,88.45,113.4,367.41,Single-ply,SBD,M
Boys,67.13,9,Colton Strode,Cooper,61.05,149.69,77.11,136.08,362.87,Single-ply,SBD,M
Boys,67.13,10,Paul Redford,Princeton,65.05,120.2,90.72,151.95,362.87,Single-ply,SBD,M
Boys,67.13,11,Jonathan Phillips,Pattonville Prairiland,63.32,124.74,70.31,165.56,360.61,Single-ply,SBD,M
Boys,67.13,12,Burke Hosier,Whitewright,65.23,138.35,77.11,127.01,342.46,Single-ply,SBD,M
Boys,67.13,13,Scottie Johnson,Cooper,60.96,117.93,79.38,131.54,328.85,Single-ply,SBD,M
Boys,74.84,14,Cameron Greenburg,Mount Vernon,67.31,108.86,83.91,122.47,315.25,Single-ply,SBD,M
Boys,67.13,15,Austin Menisick,Pattonville Prairiland,65.54,111.13,65.77,129.27,306.17,Single-ply,SBD,M
Boys,67.13,16,David Isham,Caddo Mills,60.78,115.67,54.43,122.47,292.57,Single-ply,SBD,M
Boys,67.13,17,Jesse Moore,Caddo Mills,65.5,68.04,52.16,102.06,222.26,Single-ply,SBD,M
Boys,67.13,DQ,Triston Tinney,Cumby,66.13,,79.38,122.47,,Single-ply,SBD,M
Boys,67.13,DQ,Clay Hill,Paris Chisum,64.32,86.18,,117.93,,Single-ply,SBD,M
Boys,74.84,1,Maurice Ramirez,Winnsboro,73.66,206.38,129.27,183.7,519.36,Single-ply,SBD,M
Boys,74.84,2,Jeremy Moses,Winnsboro,71.49,188.24,102.06,210.92,501.22,Single-ply,SBD,M
Boys,74.84,3,Devin Shaw,Lone Oak,72.8,183.7,117.93,188.24,489.88,Single-ply,SBD,M
Boys,74.84,4,Savon Miles,Princeton,74.66,195.04,108.86,185.97,489.88,Single-ply,SBD,M
Boys,74.84,5,Dyllan Retos,Paris Chisum,74.39,165.56,108.86,213.19,487.61,Single-ply,SBD,M
Boys,74.84,6,Tanner Phifer,Cooper,72.48,170.1,95.25,192.78,458.13,Single-ply,SBD,M
Boys,74.84,7,George Flores,Princeton,73.62,158.76,106.59,185.97,451.32,Single-ply,SBD,M
Boys,74.84,8,Esteban Rodriguez,Lone Oak,74.66,172.37,95.25,176.9,444.52,Single-ply,SBD,M
Boys,74.84,9,Eric Shaw,Lone Oak,69.22,161.03,108.86,170.1,439.98,Single-ply,SBD,M
Boys,74.84,10,Zach Torres,Princeton,69.76,161.03,95.25,174.63,430.91,Single-ply,SBD,M
Boys,82.1,11,Preston Bluett,Princeton,75.02,165.56,86.18,165.56,417.3,Single-ply,SBD,M
Boys,74.84,12,Blaine Jarratt,Caddo Mills,71.58,147.42,83.91,170.1,401.43,Single-ply,SBD,M
Boys,74.84,13,Dylan Price,Princeton,68.76,151.95,79.38,154.22,385.55,Single-ply,SBD,M
Boys,74.84,14,Cody Williams,Lone Oak,69.26,147.42,77.11,158.76,383.29,Single-ply,SBD,M
Boys,74.84,15,Ld Smith,Mesquite Poteet,70.4,151.95,88.45,142.88,383.29,Single-ply,SBD,M
Boys,74.84,16,Wyatt Tabb,Bogata Rivercrest,72.48,145.15,97.52,136.08,378.75,Single-ply,SBD,M
Boys,74.84,17,Zach Lemond,Caddo Mills,68.13,122.47,81.65,158.76,362.87,Single-ply,SBD,M
Boys,74.84,18,Reece Miller,Bonham,70.94,102.06,63.5,122.47,288.03,Single-ply,SBD,M
Boys,82.1,1,Eli Gammage,Lone Oak,79.51,188.24,124.74,197.31,510.29,Single-ply,SBD,M
Boys,82.1,2,Malachi Cobb,Mesquite Poteet,76.93,165.56,115.67,206.38,487.61,Single-ply,SBD,M
Boys,82.1,3,Nick Folse,Cumby,80.83,174.63,124.74,181.44,480.81,Single-ply,SBD,M
Boys,82.1,4,Tyler Cheeves,Mount Vernon,75.75,156.49,111.13,174.63,442.25,Single-ply,SBD,M
Boys,82.1,5,Wyatt Park,McKinney Boyd,77.38,151.95,97.52,170.1,419.57,Single-ply,SBD,M
Boys,82.1,6,Patrick Hoffman,Mount Vernon,76.02,163.29,106.59,142.88,412.77,Single-ply,SBD,M
Boys,82.1,7,Chris Hernandez,Lone Oak,78.83,147.42,90.72,163.29,401.43,Single-ply,SBD,M
Boys,82.1,8,Mitchell Attaway,Winnsboro,81.28,165.56,83.91,151.95,401.43,Single-ply,SBD,M
Boys,82.1,9,Shawn Littlefield,Caddo Mills,78.56,136.08,106.59,145.15,387.82,Single-ply,SBD,M
Boys,82.1,10,Brandon Alvarez,Bogata Rivercrest,81.01,154.22,102.06,131.54,387.82,Single-ply,SBD,M
Boys,82.1,11,Cody Smith,Cooper,76.57,136.08,68.04,163.29,367.41,Single-ply,SBD,M
Boys,82.1,12,Cole Freeman,Diana New Diana,77.29,129.27,65.77,147.42,342.46,Single-ply,SBD,M
Boys,82.1,13,Trevor Buckaloo,Bonham,81.83,129.27,74.84,138.35,342.46,Single-ply,SBD,M
Boys,82.1,14,Clayton Florio,Caddo Mills,78.02,149.69,83.91,97.52,331.12,Single-ply,SBD,M
Boys,82.1,15,John Hill,Whitewright,76.02,115.67,70.31,97.52,283.5,Single-ply,SBD,M
Boys,82.1,DQ,Dre Deleon,Nevada Community,80.74,154.22,92.99,,,Single-ply,SBD,M
Boys,82.1,DQ,Morgan Shields,Mesquite Poteet,81.1,154.22,,,,Single-ply,SBD,M
Boys,82.1,DQ,Jabari Caddell,Tyler,76.38,,88.45,145.15,,Single-ply,SBD,M
Boys,82.1,DQ,Aaron Hayes,Bogata Rivercrest,79.02,,,,,Single-ply,SBD,M
Boys,82.1,DQ,Toby Palmer,Diana New Diana,78.2,138.35,,158.76,,Single-ply,SBD,M
Boys,82.1,DQ,Kyle Rapp,Diana New Diana,78.2,127.01,,,,Single-ply,SBD,M
Boys,89.81,1,Kenton Manis,Bonham,84.28,231.33,120.2,219.99,571.53,Single-ply,SBD,M
Boys,89.81,2,Cody Anderson,Cumby,89.45,210.92,106.59,199.58,517.1,Single-ply,SBD,M
Boys,89.81,3,Dee Spencer,Mesquite Poteet,84.01,174.63,113.4,181.44,469.47,Single-ply,SBD,M
Boys,89.81,4,Garrett Land,Lone Oak,89.58,181.44,90.72,195.04,467.2,Single-ply,SBD,M
Boys,89.81,5,Nick Davis,Farmersville,86,170.1,90.72,170.1,430.91,Single-ply,SBD,M
Boys,99.79,6,Kelby Shaw,Whitewright,89.99,170.1,97.52,156.49,424.11,Single-ply,SBD,M
Boys,89.81,7,Phillip Heintze,Whitewright,88.18,165.56,106.59,145.15,417.3,Single-ply,SBD,M
Boys,99.79,8,Justus Seiber,Lone Oak,89.9,158.76,88.45,163.29,410.5,Single-ply,SBD,M
Boys,89.81,9,Stephen Jennings,Mesquite Poteet,83.01,149.69,92.99,158.76,401.43,Single-ply,SBD,M
Boys,89.81,10,William Haronopus,McKinney Boyd,85,151.95,81.65,158.76,392.36,Single-ply,SBD,M
Boys,89.81,11,John Polus,McKinney Boyd,86.82,140.61,92.99,149.69,383.29,Single-ply,SBD,M
Boys,89.81,12,Rubles Leon,Lone Oak,86.55,136.08,77.11,145.15,358.34,Single-ply,SBD,M
Boys,89.81,13,Clay Almond,Whitewright,88.54,131.54,70.31,120.2,322.05,Single-ply,SBD,M
Boys,89.81,DQ,Chris Dells,Diana New Diana,87.72,140.61,,154.22,,Single-ply,SBD,M
Boys,89.81,DQ,Colby Earley,Cooper,87,170.1,,,,Single-ply,SBD,M
Boys,99.79,1,Bryan Winburn,Winnsboro,99.06,217.72,142.88,210.92,571.53,Single-ply,SBD,M
Boys,99.79,2,Denzel Thomas,Mesquite Poteet,98.43,181.44,115.67,231.33,528.44,Single-ply,SBD,M
Boys,99.79,3,Caleb Hill,Bonham,98.25,215.46,102.06,197.31,514.83,Single-ply,SBD,M
Boys,99.79,4,Tylor Libby,Cumby,98.34,188.24,115.67,204.12,508.02,Single-ply,SBD,M
Boys,109.77,5,Matt Coker,Caddo Mills,99.88,179.17,117.93,192.78,489.88,Single-ply,SBD,M
Boys,99.79,6,Keifer Hanson,Whitewright,92.35,179.17,102.06,181.44,462.66,Single-ply,SBD,M
Boys,99.79,7,Ramon Readus,McKinney Boyd,96.16,147.42,97.52,204.12,449.06,Single-ply,SBD,M
Boys,99.79,8,Preston White,Diana New Diana,97.89,170.1,88.45,181.44,439.98,Single-ply,SBD,M
Boys,99.79,9,Andrew Taylor,Caddo Mills,92.99,163.29,99.79,158.76,421.84,Single-ply,SBD,M
Boys,99.79,10,De'Corain Blaylock,Tyler,98.79,156.49,92.99,163.29,412.77,Single-ply,SBD,M
Boys,99.79,11,Clay Stephens,Bonham,98.43,151.95,90.72,165.56,408.23,Single-ply,SBD,M
Boys,99.79,12,Shaw Cregg,Paris Chisum,92.53,122.47,65.77,124.74,312.98,Single-ply,SBD,M
Boys,99.79,DQ,Lane Daniel,Nevada Community,96.89,190.51,108.86,,,Single-ply,SBD,M
Boys,109.77,1,Logan Teel,Princeton,102.69,260.82,124.74,249.48,635.03,Single-ply,SBD,M
Boys,109.77,2,Tyler Collier,Pattonville Prairiland,103.33,192.78,111.13,199.58,503.49,Single-ply,SBD,M
Boys,109.77,3,Aysar Awad,Mesquite Poteet,107.86,190.51,133.81,170.1,494.42,Single-ply,SBD,M
Boys,109.77,4,Fili Rincon,Lone Oak,107.14,204.12,95.25,190.51,489.88,Single-ply,SBD,M
Boys,109.77,5,Rowdy Smith,Winnsboro,100.52,197.31,104.33,170.1,471.74,Single-ply,SBD,M
Boys,109.77,6,Kent Haskett,Whitewright,106.5,170.1,102.06,181.44,453.59,Single-ply,SBD,M
Boys,109.77,7,Daymon Litteton,Mesquite Poteet,109.41,181.44,95.25,176.9,453.59,Single-ply,SBD,M
Boys,109.77,8,Tyler Ballard,Bogata Rivercrest,101.88,163.29,106.59,158.76,428.64,Single-ply,SBD,M
Boys,109.77,9,Devin Andrews,Mount Vernon,103.69,161.03,79.38,181.44,421.84,Single-ply,SBD,M
Boys,109.77,10,Hayden Hanks,Bogata Rivercrest,101.24,165.56,104.33,149.69,419.57,Single-ply,SBD,M
Boys,109.77,11,Irving Rowe,Mesquite Poteet,103.06,158.76,95.25,165.56,419.57,Single-ply,SBD,M
Boys,109.77,12,Christain Tejeda,Mesquite Poteet,100.79,158.76,90.72,167.83,417.3,Single-ply,SBD,M
Boys,109.77,13,Denim McInriew,Paris Chisum,104.6,154.22,92.99,158.76,405.97,Single-ply,SBD,M
Boys,109.77,14,Adrian Atkins,Tyler,103.33,111.13,102.06,102.06,315.25,Single-ply,SBD,M
Boys,109.77,DQ,Chris Durham,Diana New Diana,103.33,106.59,,,,Single-ply,SBD,M
Boys,124.74,1,Matthew Busby,Lone Oak,124.42,299.37,158.76,249.48,707.6,Single-ply,SBD,M
Boys,124.74,2,Aquavion Evans,Mount Vernon,112.85,226.8,124.74,215.46,566.99,Single-ply,SBD,M
Boys,124.74,3,Aaron Burris,Pattonville Prairiland,119.93,206.38,108.86,188.24,503.49,Single-ply,SBD,M
Boys,124.74,4,Joseph McKee,Winnsboro,113.94,165.56,113.4,174.63,453.59,Single-ply,SBD,M
Boys,124.74,5,Seth Ambrose,McKinney Boyd,123.74,172.37,95.25,170.1,437.72,Single-ply,SBD,M
Boys,124.74,6,Jerry Daniel,Nevada Community,117.84,163.29,102.06,170.1,435.45,Single-ply,SBD,M
Boys,124.74,7,Brandon Miller,Bonham,118.02,163.29,81.65,147.42,392.36,Single-ply,SBD,M
Boys,124.74,8,Jacob Martello,Cooper,118.02,131.54,88.45,127.01,347,Single-ply,SBD,M
Boys,124.74,9,Marvin Smith,Farmersville,116.94,102.06,97.52,113.4,312.98,Single-ply,SBD,M
Boys,124.74,DQ,Dominic Little,Whitewright,113.4,115.67,,,,Single-ply,SBD,M
Boys,124.74+,1,Adrian Pulido,Tyler,131.18,276.69,154.22,231.33,662.24,Single-ply,SBD,M
Boys,124.74+,2,Trey Villareal,Diana New Diana,143.34,249.48,154.22,254.01,657.71,Single-ply,SBD,M
Boys,124.74+,3,TraVaughn Moore,Tyler,145.42,272.16,142.88,242.67,657.71,Single-ply,SBD,M
Boys,124.74+,4,Derek Templeman,Princeton,126.92,233.6,140.61,226.8,601.01,Single-ply,SBD,M
Boys,124.74+,5,Dontae Duff,Mesquite Poteet,139.16,215.46,108.86,185.97,510.29,Single-ply,SBD,M
Boys,124.74+,6,Patrick Quintana,McKinney Boyd,129.55,190.51,120.2,176.9,487.61,Single-ply,SBD,M
Boys,124.74+,7,Teddy Attaway,Tyler,125.74,188.24,90.72,183.7,462.66,Single-ply,SBD,M
