Division,WeightClassKg,Place,Name,Team,BodyweightKg,Best3SquatKg,Best3BenchKg,Best3DeadliftKg,TotalKg,Equipment,Event,Sex
Boys,51.71,1,Eddie Olvera,Los Fresnos,51.03,142.88,90.72,179.17,412.77,Single-ply,SBD,M
Boys,51.71,2,Jose Quintero,Brownsville Lopez,51.17,120.2,70.31,142.88,333.39,Single-ply,SBD,M
Boys,51.71,3,Josh Ysaguirre,San Benito,49.08,102.06,61.23,136.08,299.37,Single-ply,SBD,M
Boys,51.71,4,Leo Alaniz,Brownsville Lopez,51.66,102.06,63.5,129.27,294.84,Single-ply,SBD,M
Boys,55.79,5,Anthony Sorian,Brownsville Porter,51.89,68.04,45.36,106.59,219.99,Single-ply,SBD,M
Boys,55.79,6,Thomas Ochoa,Brownsville Pace,51.89,27.22,27.22,56.7,111.13,Single-ply,SBD,M
Boys,51.71,DQ,Jj Garza,Donna,50.3,92.99,,,,Single-ply,SBD,M
Boys,51.71,DQ,Alex Mena,Weslaco,48.94,111.13,,,,Single-ply,SBD,M
Boys,55.79,1,Edgar Hernandez,Brownsville Rivera,54.52,142.88,79.38,158.76,381.02,Single-ply,SBD,M
Boys,55.79,2,Hector Elizondo,Sharyland Pioneer,54.7,140.61,81.65,149.69,371.95,Single-ply,SBD,M
Boys,55.79,3,Bradley Salinas,Brownsville Porter,54.2,136.08,79.38,151.95,367.41,Single-ply,SBD,M
Boys,55.79,4,Misael Marquez,Brownsville Veterans Memorial,55.79,142.88,83.91,113.4,340.19,Single-ply,SBD,M
Boys,55.79,5,Austin Balli,Weslaco,53.61,106.59,52.16,129.27,288.03,Single-ply,SBD,M
Boys,59.87,6,Darren Hernandez,Donna,55.84,106.59,56.7,106.59,269.89,Single-ply,SBD,M
Boys,59.87,1,Raul Mota,San Benito,59.15,195.04,120.2,213.19,528.44,Single-ply,SBD,M
Boys,59.87,2,Danny Diaz,Brownsville Lopez,59.6,183.7,129.27,201.85,514.83,Single-ply,SBD,M
Boys,67.13,3,Randy Medellin,San Benito,59.96,170.1,106.59,183.7,460.4,Single-ply,SBD,M
Boys,59.87,4,Ovidio Garza,Brownsville Lopez,56.29,145.15,77.11,147.42,369.68,Single-ply,SBD,M
Boys,59.87,5,Miguel Tovar,Donna North,57.33,151.95,70.31,142.88,365.14,Single-ply,SBD,M
Boys,59.87,6,Joel Sanchez,Brownsville Veterans Memorial,56.29,142.88,61.23,136.08,340.19,Single-ply,SBD,M
Boys,59.87,7,Jose Sanchez,Brownsville Lopez,58.15,124.74,65.77,129.27,319.78,Single-ply,SBD,M
Boys,59.87,8,Eli Saldana,Santa Rosa,57.15,102.06,79.38,136.08,317.51,Single-ply,SBD,M
Boys,59.87,9,Mario Garcia,Brownsville Pace,58.65,111.13,74.84,111.13,297.1,Single-ply,SBD,M
Boys,59.87,10,Adrian Guerrero,Brownsville Porter,57.38,102.06,52.16,124.74,278.96,Single-ply,SBD,M
Boys,67.13,1,Heliseo Guerrero,Rio Hondo,64.73,201.85,131.54,222.26,555.65,Single-ply,SBD,M
Boys,67.13,2,Rogelio Pulido,Brownsville Lopez,66,183.7,104.33,244.94,532.97,Single-ply,SBD,M
Boys,67.13,3,Julian Flores,Rio Hondo,66.86,188.24,120.2,204.12,512.56,Single-ply,SBD,M
Boys,67.13,4,Adrian Torres,La Feria,66.18,215.46,97.52,185.97,498.95,Single-ply,SBD,M
Boys,67.13,5,Omar Rodriguez,Brownsville Veterans Memorial,66.81,183.7,115.67,179.17,478.54,Single-ply,SBD,M
Boys,67.13,6,Yayo Segura,Brownsville Pace,62.28,176.9,97.52,192.78,467.2,Single-ply,SBD,M
Boys,67.13,7,Jacob Zuniga,San Benito,65.14,172.37,90.72,183.7,446.79,Single-ply,SBD,M
Boys,67.13,8,Salvador Gonzalez,Sharyland Pioneer,66.41,163.29,102.06,174.63,439.98,Single-ply,SBD,M
Boys,74.84,9,Nacho Guevara,Brownsville Pace,67.27,158.76,90.72,176.9,426.38,Single-ply,SBD,M
Boys,67.13,10,Guillermo Estra,Brownsville Porter,63.82,156.49,97.52,170.1,424.11,Single-ply,SBD,M
Boys,67.13,11,Mark Reyes,Brownsville Porter,66.68,158.76,90.72,167.83,417.3,Single-ply,SBD,M
Boys,74.84,12,Albert Garcia-Vasquez,La Feria,67.31,151.95,83.91,181.44,417.3,Single-ply,SBD,M
Boys,74.84,13,Ronaldo Longoria,Sharyland Pioneer,67.18,165.56,74.84,174.63,415.04,Single-ply,SBD,M
Boys,67.13,14,JJ Camacho,Brownsville Pace,64.68,149.69,102.06,158.76,410.5,Single-ply,SBD,M
Boys,67.13,15,Josue Garza,Rio Hondo,64.73,158.76,92.99,158.76,410.5,Single-ply,SBD,M
Boys,67.13,16,Jonathan Elizondo,Santa Rosa,65.77,136.08,92.99,149.69,378.75,Single-ply,SBD,M
Boys,67.13,17,Todd Longoria,San Benito,65.41,127.01,79.38,136.08,342.46,Single-ply,SBD,M
Boys,67.13,18,Eric Grant,Brownsville Veterans Memorial,66.45,115.67,77.11,124.74,317.51,Single-ply,SBD,M
Boys,67.13,DQ,Sammy Cruz,Los Fresnos,65.86,,,,,Single-ply,SBD,M
Boys,67.13,DQ,Agustin Espinosa,Santa Rosa,61.69,83.91,,,,Single-ply,SBD,M
Boys,74.84,DQ,Eric Tong,Brownsville Hanna,67.27,210.92,,,,Single-ply,SBD,M
Boys,67.13,DQ,Daniel Coronado,La Feria,66.36,181.44,5.9,,,Single-ply,SBD,M
Boys,67.13,DQ,Daniel Rueda,Brownsville Rivera,65.5,156.49,,,,Single-ply,SBD,M
Boys,74.84,1,Arturo Mancias,Brownsville Hanna,70.31,201.85,115.67,208.65,526.17,Single-ply,SBD,M
Boys,74.84,2,Angel Loera,Brownsville Rivera,73.48,192.78,111.13,192.78,496.68,Single-ply,SBD,M
Boys,74.84,3,Roel Benitez,Rio Hondo,73.94,174.63,133.81,183.7,492.15,Single-ply,SBD,M
Boys,74.84,4,Romeo Lopez,Sharyland Pioneer,74.66,170.1,120.2,190.51,480.81,Single-ply,SBD,M
Boys,74.84,5,Frank Marin,Weslaco,69.31,181.44,108.86,181.44,471.74,Single-ply,SBD,M
Boys,74.84,6,Luciano Ramos,Brownsville Porter,68.81,174.63,106.59,170.1,451.32,Single-ply,SBD,M
Boys,74.84,7,Mike Adameit,Lyford,70.17,183.7,88.45,174.63,446.79,Single-ply,SBD,M
Boys,74.84,8,Isaac Castro,Brownsville Rivera,71.17,165.56,102.06,174.63,442.25,Single-ply,SBD,M
Boys,74.84,9,Mark Gutierrez,Donna North,73.57,158.76,92.99,172.37,424.11,Single-ply,SBD,M
Boys,74.84,10,Brandon Perez,La Feria,69.04,147.42,86.18,179.17,412.77,Single-ply,SBD,M
Boys,74.84,11,Angel Rosales,San Benito,69.22,142.88,102.06,165.56,410.5,Single-ply,SBD,M
Boys,74.84,12,Ruben Balboa,Brownsville Pace,74.75,151.95,79.38,167.83,399.16,Single-ply,SBD,M
Boys,74.84,13,Julian Flores,San Benito,68.76,158.76,79.38,154.22,392.36,Single-ply,SBD,M
Boys,74.84,14,Frankie Moreno,Lyford,69.94,145.15,77.11,149.69,371.95,Single-ply,SBD,M
Boys,74.84,15,Javier Guzman,Rio Hondo,71.53,136.08,92.99,142.88,371.95,Single-ply,SBD,M
Boys,74.84,16,Frank Becerra,Weslaco,67.59,151.95,88.45,113.4,353.8,Single-ply,SBD,M
Boys,74.84,17,Justin Rodriguez,Santa Rosa,70.4,131.54,86.18,136.08,353.8,Single-ply,SBD,M
Boys,74.84,18,Hector Guerrero,Donna,74.25,136.08,68.04,149.69,353.8,Single-ply,SBD,M
Boys,74.84,19,Jake Ramos,Lyford,72.76,131.54,74.84,115.67,322.05,Single-ply,SBD,M
Boys,74.84,20,Nelson Mejia,Port Isabel,72.85,106.59,70.31,136.08,312.98,Single-ply,SBD,M
Boys,74.84,21,Ethan Gonzalez,Lyford,72.53,102.06,77.11,113.4,292.57,Single-ply,SBD,M
Boys,74.84,DQ,Jared Escobedo,Brownsville Porter,72.21,,,,,Single-ply,SBD,M
Boys,74.84,DQ,Zeke Cardenas,Brownsville Hanna,71.49,188.24,106.59,,,Single-ply,SBD,M
Boys,82.1,1,Fabian Rodriguez,Los Fresnos,81.28,226.8,142.88,229.06,598.74,Single-ply,SBD,M
Boys,89.81,2,Ramon Delgado,Brownsville Hanna,82.24,233.6,117.93,222.26,573.79,Single-ply,SBD,M
Boys,82.1,3,Brandon Martinez,Brownsville Veterans Memorial,80.65,217.72,117.93,229.06,564.72,Single-ply,SBD,M
Boys,82.1,4,Abram Ramirez,Rio Hondo,81.74,204.12,136.08,224.53,564.72,Single-ply,SBD,M
Boys,82.1,5,Sam Longoria,Brownsville Hanna,81.1,219.99,120.2,192.78,532.97,Single-ply,SBD,M
Boys,82.1,6,Luis Ortiz,Los Fresnos,79.38,192.78,120.2,217.72,530.7,Single-ply,SBD,M
Boys,82.1,7,Trae Caballero,Weslaco,81.42,188.24,113.4,219.99,521.63,Single-ply,SBD,M
Boys,82.1,8,Ricky Sauceda,Brownsville Lopez,78.52,190.51,120.2,208.65,519.36,Single-ply,SBD,M
Boys,89.81,9,Pablo Garza,Brownsville Pace,82.28,176.9,120.2,208.65,505.76,Single-ply,SBD,M
Boys,82.1,10,Javi Sanchez,Weslaco,78.56,174.63,115.67,204.12,494.42,Single-ply,SBD,M
Boys,82.1,11,Jerry Alvarez,Rio Hondo,79.02,188.24,102.06,183.7,474,Single-ply,SBD,M
Boys,89.81,12,Humberto Aparicio,Sharyland Pioneer,82.33,158.76,117.93,192.78,469.47,Single-ply,SBD,M
Boys,82.1,13,Ernesto Benavidez,Brownsville Hanna,80.51,165.56,102.06,197.31,464.93,Single-ply,SBD,M
Boys,82.1,14,Carlos Martinez,Sharyland Pioneer,80.38,176.9,102.06,183.7,462.66,Single-ply,SBD,M
Boys,82.1,15,Mark Lopez,San Benito,77.84,172.37,90.72,172.37,435.45,Single-ply,SBD,M
Boys,82.1,16,Bryan Silva,Brownsville Rivera,78.2,147.42,115.67,167.83,430.91,Single-ply,SBD,M
Boys,82.1,17,Joe Castillo,Santa Rosa,78.88,158.76,106.59,161.03,426.38,Single-ply,SBD,M
Boys,82.1,18,Albert Zurita,Brownsville Pace,78.65,142.88,77.11,183.7,403.7,Single-ply,SBD,M
Boys,89.81,19,Jovanni Mendez,Lyford,82.19,136.08,104.33,154.22,394.63,Single-ply,SBD,M
Boys,82.1,20,Salvador Mendoza,La Feria,77.16,147.42,81.65,149.69,378.75,Single-ply,SBD,M
Boys,82.1,DQ,Eddie Garza,Donna,81.6,,,,,Single-ply,SBD,M
Boys,82.1,DQ,Armando Azocar,Brownsville Rivera,78.7,136.08,95.25,,,Single-ply,SBD,M
Boys,89.81,1,Erick Vazquez,Brownsville Veterans Memorial,89.49,231.33,145.15,238.14,614.62,Single-ply,SBD,M
Boys,89.81,2,Alex Chairez,Brownsville Veterans Memorial,84.05,208.65,136.08,226.8,571.53,Single-ply,SBD,M
Boys,89.81,3,John Ray Martinez,Port Isabel,84.59,213.19,138.35,204.12,555.65,Single-ply,SBD,M
Boys,89.81,4,Jose Nicoleau,Sharyland Pioneer,87.18,201.85,151.95,201.85,555.65,Single-ply,SBD,M
Boys,89.81,5,Daniel Ramos,Brownsville Lopez,87.82,201.85,129.27,208.65,539.77,Single-ply,SBD,M
Boys,89.81,6,Cordero Castro,Lyford,85.41,199.58,113.4,204.12,517.1,Single-ply,SBD,M
Boys,99.79,7,Julio Medina,Brownsville Pace,89.9,183.7,111.13,176.9,471.74,Single-ply,SBD,M
Boys,89.81,8,Randy De La Paz,Weslaco,85.32,181.44,88.45,199.58,469.47,Single-ply,SBD,M
Boys,89.81,9,Steven Martinez,Weslaco,88.18,170.1,83.91,206.38,460.4,Single-ply,SBD,M
Boys,89.81,10,Michael Sanchez,San Benito,83.78,172.37,99.79,176.9,449.06,Single-ply,SBD,M
Boys,89.81,11,David Cardenas,Brownsville Pace,89.09,165.56,90.72,176.9,433.18,Single-ply,SBD,M
Boys,89.81,12,Esai Camacho,Port Isabel,84.05,165.56,115.67,149.69,430.91,Single-ply,SBD,M
Boys,99.79,13,Juan Rodriguez,Brownsville Pace,89.99,176.9,111.13,142.88,430.91,Single-ply,SBD,M
Boys,89.81,14,Pedro Hernandez,Rio Hondo,84.23,158.76,97.52,163.29,419.57,Single-ply,SBD,M
Boys,89.81,15,Ivan Cortez,Brownsville Rivera,87.41,133.81,102.06,142.88,378.75,Single-ply,SBD,M
Boys,89.81,DQ,Chris Walker,Brownsville Pace,87.32,179.17,,,,Single-ply,SBD,M
Boys,99.79,1,Angel Espinosa,Brownsville Rivera,95.71,249.48,158.76,249.48,657.71,Single-ply,SBD,M
Boys,99.79,2,Aaron Zapata,Los Fresnos,92.17,249.48,136.08,249.48,635.03,Single-ply,SBD,M
Boys,99.79,3,Antonio Ruiz,Brownsville Porter,91.13,233.6,124.74,238.14,596.47,Single-ply,SBD,M
Boys,99.79,4,Marco Gutierrez,La Feria,98.2,210.92,147.42,226.8,585.13,Single-ply,SBD,M
Boys,99.79,5,Omar Leal,Brownsville Hanna,95.16,235.87,136.08,215.46,587.4,Single-ply,SBD,M
Boys,99.79,6,Alex Valadez,Brownsville Hanna,98.02,219.99,138.35,222.26,580.6,Single-ply,SBD,M
Boys,99.79,7,Juan Aguirre,San Benito,90.36,204.12,127.01,224.53,555.65,Single-ply,SBD,M
Boys,99.79,8,Bryan Lawrence,Brownsville Veterans Memorial,99.65,215.46,129.27,204.12,548.85,Single-ply,SBD,M
Boys,99.79,9,Javier Skinner,Rio Hondo,91.81,199.58,113.4,204.12,517.1,Single-ply,SBD,M
Boys,99.79,10,Matt Torres,San Benito,98.16,199.58,133.81,181.44,514.83,Single-ply,SBD,M
Boys,99.79,11,Joey Torres,Brownsville Lopez,94.03,206.38,120.2,183.7,510.29,Single-ply,SBD,M
Boys,99.79,12,Miguel Teran,Brownsville Pace,99.47,192.78,122.47,183.7,498.95,Single-ply,SBD,M
Boys,99.79,13,Jonny Howell,Sharyland Pioneer,95.12,176.9,136.08,174.63,487.61,Single-ply,SBD,M
Boys,109.77,14,Lee Lozano,Brownsville Porter,99.84,192.78,99.79,181.44,474,Single-ply,SBD,M
Boys,99.79,15,James Heath,Sharyland Pioneer,99.06,183.7,99.79,176.9,460.4,Single-ply,SBD,M
Boys,99.79,16,Juan Apango,Port Isabel,98.11,188.24,115.67,142.88,446.79,Single-ply,SBD,M
Boys,99.79,17,Pedro Padron,Rio Hondo,97.66,174.63,97.52,158.76,430.91,Single-ply,SBD,M
Boys,99.79,DQ,Roger Rios,Brownsville Rivera,97.3,174.63,,,,Single-ply,SBD,M
Boys,124.74,1,Diego Moreno,Brownsville Hanna,109.95,229.06,151.95,244.94,625.96,Single-ply,SBD,M
Boys,109.77,2,Michael Alvarez,Brownsville Pace,104.78,258.55,136.08,199.58,594.21,Single-ply,SBD,M
Boys,109.77,3,Israel Torres,La Feria,106.68,208.65,138.35,224.53,571.53,Single-ply,SBD,M
Boys,109.77,4,Rollie Villanueva,Brownsville Hanna,107.77,199.58,138.35,201.85,539.77,Single-ply,SBD,M
Boys,109.77,5,JP Torres,Donna,108.05,226.8,122.47,188.24,537.51,Single-ply,SBD,M
Boys,109.77,6,Freddy Martinez,Los Fresnos,106.5,179.17,127.01,213.19,519.36,Single-ply,SBD,M
Boys,109.77,7,Daniel Gonzalez,Brownsville Pace,108.14,231.33,113.4,167.83,512.56,Single-ply,SBD,M
Boys,109.77,8,Austin Sulewski,Brownsville Pace,108.95,226.8,124.74,158.76,510.29,Single-ply,SBD,M
Boys,109.77,9,Jesus Costilla,Donna North,101.6,181.44,102.06,165.56,449.06,Single-ply,SBD,M
Boys,109.77,10,Ray Rodriguez,Weslaco,109.77,165.56,92.99,190.51,449.06,Single-ply,SBD,M
Boys,109.77,11,Israel Cerda,Donna North,103.51,151.95,99.79,165.56,417.3,Single-ply,SBD,M
Boys,109.77,12,Mac Mireles,Donna North,102.24,147.42,90.72,147.42,385.55,Single-ply,SBD,M
Boys,109.77,DQ,Eliseo Garza,Santa Rosa,102.6,,,,,Single-ply,SBD,M
Boys,109.77,DQ,Jonathan Ojeda,Brownsville Pace,104.42,188.24,102.06,,,Single-ply,SBD,M
Boys,124.74,1,Gonzalo Alegria,La Feria,122.2,294.84,149.69,249.48,694,Single-ply,SBD,M
Boys,124.74,2,Rodney Morales,Brownsville Hanna,111.04,210.92,138.35,206.38,555.65,Single-ply,SBD,M
Boys,124.74,3,Flavio Anguiano,Lyford,122.29,210.92,124.74,176.9,512.56,Single-ply,SBD,M
Boys,124.74,4,Rudy De La Torre,Weslaco,117.39,224.53,111.13,174.63,510.29,Single-ply,SBD,M
Boys,124.74,5,Robert De Leon,Lyford,113.67,204.12,113.4,183.7,501.22,Single-ply,SBD,M
Boys,124.74,6,Juan Mireles,Lyford,116.85,188.24,122.47,188.24,498.95,Single-ply,SBD,M
Boys,124.74,7,Manny Hernandez,Rio Hondo,111.4,215.46,104.33,163.29,483.08,Single-ply,SBD,M
Boys,124.74,8,Juan Mireles,Port Isabel,115.67,183.7,106.59,136.08,426.38,Single-ply,SBD,M
Boys,124.74+,1,Mario DeLeon,La Feria,146.87,256.28,165.56,210.92,632.76,Single-ply,SBD,M
Boys,124.74+,2,Jimmy DeLeon,Brownsville Veterans Memorial,160.39,244.94,174.63,195.04,614.62,Single-ply,SBD,M
Boys,124.74+,3,Josh Trevino,Brownsville Lopez,137.8,231.33,133.81,238.14,603.28,Single-ply,SBD,M
Boys,124.74+,4,Gage Rivas,Brownsville Veterans Memorial,144.24,249.48,147.42,183.7,580.6,Single-ply,SBD,M
Boys,124.74+,5,Jose Molina,Donna North,142.25,204.12,147.42,226.8,578.33,Single-ply,SBD,M
Boys,124.74+,6,Christian Castro,Brownsville Pace,127.14,242.67,106.59,226.8,576.06,Single-ply,SBD,M
Boys,124.74+,7,Robert Perez,Weslaco,139.89,179.17,124.74,174.63,478.54,Single-ply,SBD,M
Boys,124.74+,8,Milton Botti,Brownsville Porter,137.53,176.9,92.99,174.63,444.52,Single-ply,SBD,M
Boys,124.74+,9,Kevin Garcia,Brownsville Porter,130.45,124.74,124.74,192.78,442.25,Single-ply,SBD,M
Boys,124.74+,10,José Saldaña,Brownsville Rivera,174.36,131.54,90.72,163.29,385.55,Single-ply,SBD,M
Boys,124.74+,DQ,Emilio Villacana,Lyford,129.09,176.9,,,,Single-ply,SBD,M
