Division,WeightClassKg,Place,Name,Team,BodyweightKg,Best3SquatKg,Best3BenchKg,Best3DeadliftKg,TotalKg,Equipment,Event,Sex
Boys,51.71,1,Cody Villa,Crawford,50.53,113.4,77.11,124.74,315.25,Single-ply,SBD,M
Boys,51.71,2,Ryan Dean,Waco Midway,47.54,97.52,58.97,108.86,265.35,Single-ply,SBD,M
Boys,51.71,3,Sam Brock,China Spring,51.62,90.72,61.23,106.59,258.55,Single-ply,SBD,M
Boys,55.79,DQ,Sean Murphy,Bosqueville,51.94,70.31,,,,Single-ply,SBD,M
Boys,55.79,1,Colton Russell,Bosqueville,55.43,172.37,86.18,165.56,424.11,Single-ply,SBD,M
Boys,55.79,2,Clint Lott,Waco Midway,55.79,154.22,79.38,167.83,401.43,Single-ply,SBD,M
Boys,59.87,3,Baldomero Sanchez,Riesel,55.97,156.49,77.11,156.49,390.09,Single-ply,SBD,M
Boys,55.79,4,Tanner Blackwell,Gatesville,55.79,145.15,72.57,154.22,371.95,Single-ply,SBD,M
Boys,55.79,5,Travis Lacina,Crawford,53.8,127.01,72.57,136.08,335.66,Single-ply,SBD,M
Boys,55.79,6,Grady Rhoden,Alvarado,55.7,127.01,65.77,136.08,328.85,Single-ply,SBD,M
Boys,55.79,7,Mike Deak,Waco La Vega,55.07,117.93,61.23,138.35,317.51,Single-ply,SBD,M
Boys,55.79,DQ,Lee Ballou,Groesbeck,55.34,,56.7,,,Single-ply,SBD,M
Boys,59.87,1,Josh McCraw,Gatesville,58.69,204.12,99.79,181.44,485.34,Single-ply,SBD,M
Boys,59.87,2,Luis Juarez,Bosqueville,59.78,174.63,104.33,181.44,460.4,Single-ply,SBD,M
Boys,59.87,3,Brad Gravitt,China Spring,59.15,149.69,79.38,154.22,383.29,Single-ply,SBD,M
Boys,59.87,4,Dane Rodriguez,Chilton,56.79,151.95,79.38,145.15,376.48,Single-ply,SBD,M
Boys,59.87,5,Cj Doan,Bosqueville,59.69,127.01,86.18,136.08,349.27,Single-ply,SBD,M
Boys,59.87,6,DeVonte Graves,Chilton,56.15,117.93,68.04,149.69,335.66,Single-ply,SBD,M
Boys,59.87,7,Curtis Evans,Riesel,58.51,140.61,63.5,127.01,331.12,Single-ply,SBD,M
Boys,59.87,8,Nelson Musgrave,Waco Connally,56.79,127.01,61.23,129.27,317.51,Single-ply,SBD,M
Boys,59.87,9,Chip Espin,Axtell,59.6,108.86,79.38,127.01,315.25,Single-ply,SBD,M
Boys,59.87,10,Harley Elderidge,Waco Connally,58.79,104.33,70.31,129.27,303.91,Single-ply,SBD,M
Boys,59.87,11,Seth Waters,Gatesville,56.97,102.06,56.7,115.67,274.42,Single-ply,SBD,M
Boys,67.13,1,Jesus Jaimes,Riesel,65.59,226.8,122.47,217.72,566.99,Single-ply,SBD,M
Boys,74.84,DQ,Gary Goode,Waco Midway,67.31,,,,,Single-ply,SBD,M
Boys,74.84,3,Chase McGhee,Gatesville,67.36,195.04,117.93,170.1,483.08,Single-ply,SBD,M
Boys,67.13,4,Zac Beyer,Bosqueville,66.95,188.24,106.59,181.44,476.27,Single-ply,SBD,M
Boys,67.13,5,Jesse Berry,Crawford,60.42,170.1,97.52,183.7,451.32,Single-ply,SBD,M
Boys,67.13,6,Dylan Haralson,Axtell,65.5,190.51,81.65,179.17,451.32,Single-ply,SBD,M
Boys,67.13,7,Justus Czajkoski,China Spring,66.95,149.69,99.79,170.1,419.57,Single-ply,SBD,M
Boys,67.13,8,Steven Foster,Riesel,61.23,167.83,90.72,154.22,412.77,Single-ply,SBD,M
Boys,67.13,9,Noah Contella,Waco Reicher Catholic,64.77,161.03,92.99,147.42,401.43,Single-ply,SBD,M
Boys,67.13,10,Adrian Rodriguez,Lorena,61.42,149.69,77.11,163.29,390.09,Single-ply,SBD,M
Boys,67.13,11,Brady Baker,Riesel,67.04,158.76,68.04,145.15,371.95,Single-ply,SBD,M
Boys,67.13,12,Josh Payner,Riesel,65.05,136.08,70.31,145.15,351.53,Single-ply,SBD,M
Boys,67.13,13,Justin Farmer,Moody,61.87,127.01,74.84,145.15,347,Single-ply,SBD,M
Boys,74.84,14,Dillion Mcbride,Axtell,67.22,117.93,88.45,138.35,344.73,Single-ply,SBD,M
Boys,67.13,15,Reed Kilpatrick,Lorena,63.05,136.08,79.38,124.74,340.19,Single-ply,SBD,M
Boys,67.13,16,Dakota Hollingsworth,Moody,66.22,111.13,63.5,149.69,324.32,Single-ply,SBD,M
Boys,74.84,17,Sam Burnside,Lorena,67.36,122.47,61.23,97.52,281.23,Single-ply,SBD,M
Boys,74.84,18,Ryan Hedges,Bosqueville,67.31,95.25,65.77,117.93,278.96,Single-ply,SBD,M
Boys,67.13,19,Keegan Robinson,Lorena,63.5,95.25,56.7,102.06,254.01,Single-ply,SBD,M
Boys,67.13,20,Dillion Woods,Bosqueville,65.68,83.91,49.9,99.79,233.6,Single-ply,SBD,M
Boys,67.13,21,Matt Barnard,Lorena,66.86,167.83,,,167.83,Single-ply,S,M
Boys,74.84,1,Travis Cooke,China Spring,73.39,217.72,142.88,208.65,569.26,Single-ply,SBD,M
Boys,74.84,2,Case D'Herde,Waco Midway,73.3,183.7,122.47,219.99,526.17,Single-ply,SBD,M
Boys,74.84,3,Cameron Terrell,Waco Connally,70.58,183.7,102.06,188.24,474,Single-ply,SBD,M
Boys,74.84,4,Brandon Fortune,Alvarado,73.3,163.29,106.59,204.12,474,Single-ply,SBD,M
Boys,74.84,5,Braxton Stefka,Axtell,72.85,185.97,95.25,174.63,455.86,Single-ply,SBD,M
Boys,74.84,6,Kade Robinson,Lorena,73.39,181.44,92.99,179.17,453.59,Single-ply,SBD,M
Boys,74.84,7,Jimmie Joiner,Lorena,74.03,176.9,95.25,167.83,439.98,Single-ply,SBD,M
Boys,74.84,8,Rodney Wylie,Axtell,73.57,181.44,99.79,149.69,430.91,Single-ply,SBD,M
Boys,74.84,9,Jake Maddox,Groesbeck,72.67,165.56,95.25,156.49,417.3,Single-ply,SBD,M
Boys,74.84,10,Edmond Marton,Axtell,68.67,158.76,83.91,172.37,415.04,Single-ply,SBD,M
Boys,74.84,11,Ben Hernandez,Waco La Vega,72.76,142.88,74.84,183.7,401.43,Single-ply,SBD,M
Boys,74.84,12,Gage Meadows,Lorena,74.03,136.08,106.59,140.61,383.29,Single-ply,SBD,M
Boys,74.84,13,Matthew Weatherman,Crawford,74.12,136.08,86.18,147.42,369.68,Single-ply,SBD,M
Boys,74.84,DQ,Cole Thigpen,Chilton,74.84,124.74,,,,Single-ply,SBD,M
Boys,74.84,DQ,Frank Butler,Bosqueville,70.49,124.74,,,,Single-ply,SBD,M
Boys,74.84,DQ,Ryan Baty,Riesel,73.39,122.47,,,,Single-ply,SBD,M
Boys,74.84,DQ,Jay Johnson,Waco Connally,72.76,,,,,Single-ply,SBD,M
Boys,82.1,1,Nathan Cornett,Alvarado,81.19,208.65,136.08,204.12,548.85,Single-ply,SBD,M
Boys,82.1,2,Marco Vasquez,Riesel,81.37,204.12,122.47,181.44,508.02,Single-ply,SBD,M
Boys,82.1,3,Darian Robinson,Waco Connally,82.01,192.78,117.93,190.51,501.22,Single-ply,SBD,M
Boys,82.1,4,Ben Parrish,Groesbeck,81.92,190.51,115.67,192.78,498.95,Single-ply,SBD,M
Boys,82.1,5,Randy Gober,Waco La Vega,79.92,185.97,129.27,181.44,496.68,Single-ply,SBD,M
Boys,89.81,6,Tyler Martinez,Axtell,82.33,204.12,99.79,190.51,494.42,Single-ply,SBD,M
Boys,82.1,7,Matt Stephenson,China Spring,77.2,172.37,131.54,188.24,492.15,Single-ply,SBD,M
Boys,82.1,8,Aaron Dulus,Waco Connally,81.83,183.7,122.47,185.97,492.15,Single-ply,SBD,M
Boys,89.81,9,Dustin McLearen,Gatesville,82.28,185.97,122.47,181.44,489.88,Single-ply,SBD,M
Boys,82.1,10,Colton Hedrick,Groesbeck,81.1,172.37,90.72,176.9,439.98,Single-ply,SBD,M
Boys,89.81,11,Alex Anderson,Waco Midway,82.28,156.49,104.33,163.29,424.11,Single-ply,SBD,M
Boys,82.1,12,Manny Garcia,Waco La Vega,79.61,158.76,102.06,156.49,417.3,Single-ply,SBD,M
Boys,89.81,13,Rowdy Goff,Alvarado,82.33,149.69,102.06,158.76,410.5,Single-ply,SBD,M
Boys,82.1,14,Caden Ridley,Gatesville,77.2,158.76,86.18,163.29,408.23,Single-ply,SBD,M
Boys,82.1,15,Justin Mosely,Gatesville,78.29,140.61,90.72,158.76,390.09,Single-ply,SBD,M
Boys,82.1,16,Preston Parsons,Moody,80.56,149.69,77.11,163.29,390.09,Single-ply,SBD,M
Boys,82.1,17,Tanner Coone,Axtell,77.29,142.88,90.72,142.88,376.48,Single-ply,SBD,M
Boys,82.1,18,Matthew Wiethorn,Crawford,80.2,136.08,79.38,147.42,362.87,Single-ply,SBD,M
Boys,82.1,19,Dillon Van Zandt,Crawford,75.66,136.08,72.57,136.08,344.73,Single-ply,SBD,M
Boys,82.1,20,Cody Hubbard,Moody,79.29,124.74,56.7,111.13,292.57,Single-ply,SBD,M
Boys,89.81,1,Martin Balderas,Groesbeck,85.09,242.67,147.42,244.94,635.03,Single-ply,SBD,M
Boys,89.81,2,Brody Jones,Crawford,88.18,254.01,142.88,204.12,601.01,Single-ply,SBD,M
Boys,89.81,3,Gerald Horne II,Waco La Vega,87.27,213.19,131.54,206.38,551.11,Single-ply,SBD,M
Boys,89.81,4,Kenny Adams,Alvarado,89.27,190.51,127.01,215.46,532.97,Single-ply,SBD,M
Boys,89.81,5,Wayne Onderdonck,Alvarado,83.37,181.44,122.47,213.19,517.1,Single-ply,SBD,M
Boys,89.81,6,Rashaad Miller,China Spring,82.83,176.9,124.74,204.12,505.76,Single-ply,SBD,M
Boys,89.81,7,Zach Koenig,China Spring,88,190.51,124.74,174.63,489.88,Single-ply,SBD,M
Boys,89.81,8,Devin Mercer,Waco Midway,87.18,174.63,120.2,192.78,487.61,Single-ply,SBD,M
Boys,89.81,9,Chase King,Waco Midway,87.09,170.1,120.2,170.1,460.4,Single-ply,SBD,M
Boys,89.81,10,Jacob Trevino,Moody,87.63,181.44,90.72,163.29,435.45,Single-ply,SBD,M
Boys,89.81,11,Richard Mills,Riesel,89.63,151.95,102.06,154.22,408.23,Single-ply,SBD,M
Boys,89.81,12,Marshall Weatherby,Alvarado,88.9,147.42,95.25,163.29,405.97,Single-ply,SBD,M
Boys,89.81,13,Dustin Brown,Waco La Vega,83.19,136.08,86.18,131.54,353.8,Single-ply,SBD,M
Boys,89.81,14,Patrick Cresson,Lorena,87.27,108.86,72.57,99.79,281.23,Single-ply,SBD,M
Boys,89.81,DQ,Gerald Horne III,Waco La Vega,84.55,,,,,Single-ply,SBD,M
Boys,89.81,DQ,Brett Mathis,Bosqueville,85.18,151.95,79.38,,,Single-ply,SBD,M
Boys,99.79,1,Shaq Walker,Waco La Vega,98.16,249.48,120.2,254.01,623.69,Single-ply,SBD,M
Boys,99.79,2,Chris Robinson,Waco Connally,94.08,226.8,129.27,226.8,582.87,Single-ply,SBD,M
Boys,109.77,3,Guadalupe Munoz,Waco La Vega,99.84,219.99,138.35,188.24,546.58,Single-ply,SBD,M
Boys,99.79,4,Joseph Reddick,Riesel,94.89,208.65,129.27,199.58,537.51,Single-ply,SBD,M
Boys,99.79,5,John Almanza,Bosqueville,95.53,217.72,120.2,188.24,526.17,Single-ply,SBD,M
Boys,99.79,6,Ben Chavez,Chilton,96.34,215.46,102.06,204.12,521.63,Single-ply,SBD,M
Boys,109.77,7,Nick Maddox,Waco Reicher Catholic,100.02,192.78,113.4,213.19,519.36,Single-ply,SBD,M
Boys,99.79,8,Cedric Carter,Chilton,95.8,197.31,111.13,190.51,498.95,Single-ply,SBD,M
Boys,99.79,9,Dalton Synan,China Spring,97.16,181.44,131.54,185.97,498.95,Single-ply,SBD,M
Boys,99.79,10,Andrew Sevener,Alvarado,96.07,204.12,108.86,181.44,494.42,Single-ply,SBD,M
Boys,99.79,11,Justin Rhyne,Gatesville,99.79,170.1,131.54,176.9,478.54,Single-ply,SBD,M
Boys,99.79,12,Bobby Turner,Waco Midway,91.9,158.76,108.86,185.97,453.59,Single-ply,SBD,M
Boys,99.79,13,Vinny Tovar,Waco La Vega,98.16,183.7,115.67,149.69,449.06,Single-ply,SBD,M
Boys,99.79,14,Jacob Michalk,Riesel,98.43,158.76,106.59,154.22,419.57,Single-ply,SBD,M
Boys,99.79,15,Bryan Bryant,Waco La Vega,93.58,154.22,102.06,149.69,405.97,Single-ply,SBD,M
Boys,99.79,16,Cameron Smith #8,Chilton,93.89,142.88,108.86,151.95,403.7,Single-ply,SBD,M
Boys,99.79,17,Tate Alambar,China Spring,98.7,151.95,95.25,156.49,403.7,Single-ply,SBD,M
Boys,99.79,18,Trevor Freeman,Waco La Vega,93.12,136.08,77.11,151.95,365.14,Single-ply,SBD,M
Boys,99.79,19,Carlos Angulo,Gatesville,92.9,129.27,65.77,122.47,317.51,Single-ply,SBD,M
Boys,109.77,1,Greg Garrett,Waco Midway,108.32,274.42,183.7,235.87,694,Single-ply,SBD,M
Boys,109.77,2,Luis Ramírez,Waco Reicher Catholic,108.59,276.69,181.44,231.33,689.46,Single-ply,SBD,M
Boys,109.77,3,Omar Cardoso,Waco Reicher Catholic,102.69,249.48,124.74,238.14,612.35,Single-ply,SBD,M
Boys,109.77,4,D'Andra Minnitt,Waco La Vega,106.68,249.48,136.08,219.99,605.55,Single-ply,SBD,M
Boys,109.77,5,Aj Castillo,Alvarado,100.79,226.8,151.95,219.99,598.74,Single-ply,SBD,M
Boys,109.77,6,Ryan de la Garza,Waco Connally,106.5,249.48,138.35,210.92,598.74,Single-ply,SBD,M
Boys,109.77,7,Josh Carroll,Waco La Vega,102.65,226.8,136.08,229.06,591.94,Single-ply,SBD,M
Boys,109.77,8,Seth White,Alvarado,105.96,244.94,127.01,217.72,589.67,Single-ply,SBD,M
Boys,109.77,9,Peter Wimberly,China Spring,108.86,226.8,140.61,206.38,573.79,Single-ply,SBD,M
Boys,109.77,10,Zak Hudspeth,Gatesville,109.68,195.04,113.4,185.97,494.42,Single-ply,SBD,M
Boys,109.77,11,Brazos Fuller,Alvarado,106.41,192.78,111.13,161.03,464.93,Single-ply,SBD,M
Boys,109.77,12,Blake Kasparian,Crawford,108.32,181.44,111.13,172.37,464.93,Single-ply,SBD,M
Boys,109.77,13,Colby Gohlke,Crawford,106.87,170.1,97.52,188.24,455.86,Single-ply,SBD,M
Boys,109.77,14,Steven King,Groesbeck,104.33,156.49,117.93,167.83,442.25,Single-ply,SBD,M
Boys,109.77,15,Bobby Davis,Bosqueville,108.95,158.76,88.45,165.56,412.77,Single-ply,SBD,M
Boys,109.77,16,Travis Crowson,Groesbeck,100.97,147.42,86.18,161.03,394.63,Single-ply,SBD,M
Boys,109.77,17,Daniel Lopez,Waco La Vega,104.37,136.08,68.04,136.08,340.19,Single-ply,SBD,M
Boys,124.74,1,Brian Pullen,China Spring,119.75,272.16,163.29,233.6,669.05,Single-ply,SBD,M
Boys,124.74,2,Dwight Holder,Waco La Vega,119.48,272.16,142.88,219.99,635.03,Single-ply,SBD,M
Boys,124.74,3,Colton Ridley,Gatesville,118.66,244.94,163.29,222.26,630.49,Single-ply,SBD,M
Boys,124.74,4,Anthony Barraza,Groesbeck,113.85,238.14,133.81,215.46,587.4,Single-ply,SBD,M
Boys,124.74,5,Jimmy Thomas,Alvarado,118.75,217.72,113.4,183.7,514.83,Single-ply,SBD,M
Boys,124.74,6,Brandon White,Axtell,124.28,199.58,104.33,199.58,503.49,Single-ply,SBD,M
Boys,124.74,7,Manuel Hernandez,Waco Reicher Catholic,111.86,190.51,131.54,167.83,489.88,Single-ply,SBD,M
Boys,124.74,8,Lucas Morales,Waco Reicher Catholic,122.83,183.7,104.33,192.78,480.81,Single-ply,SBD,M
Boys,124.74,9,Austin Allsup,Lorena,113.4,185.97,102.06,165.56,453.59,Single-ply,SBD,M
Boys,124.74+,10,Narciso Molina,Waco Connally,124.96,183.7,97.52,161.03,442.25,Single-ply,SBD,M
Boys,124.74,11,Cyle Johnson,Alvarado,117.3,183.7,95.25,136.08,415.04,Single-ply,SBD,M
Boys,124.74,12,Dylan Lemons,Alvarado,116.21,147.42,95.25,165.56,408.23,Single-ply,SBD,M
Boys,124.74,13,Travis Tanner,Waco Reicher Catholic,121.2,142.88,81.65,154.22,378.75,Single-ply,SBD,M
Boys,124.74,14,Logan McGilvery,Groesbeck,110.22,95.25,63.5,136.08,294.84,Single-ply,SBD,M
Boys,124.74,DQ,Chance Richards,Chilton,118.21,,,,,Single-ply,SBD,M
Boys,124.74+,1,Andrew Billings,Waco,135.44,290.3,204.12,283.5,777.91,Single-ply,SBD,M
Boys,124.74+,2,Marcelo Ramirez,Waco La Vega,138.84,249.48,124.74,256.28,630.49,Single-ply,SBD,M
Boys,124.74+,3,Trevor Beard,Lorena,126.82,217.72,127.01,190.51,535.24,Single-ply,SBD,M
Boys,124.74+,4,Dalton Hayes,Waco Midway,126.64,215.46,111.13,170.1,496.68,Single-ply,SBD,M
Boys,124.74+,5,Brandon Cross,Alvarado,126.82,149.69,102.06,156.49,408.23,Single-ply,SBD,M
Boys,124.74+,6,Robert Anglin,Groesbeck,133.54,122.47,90.72,158.76,371.95,Single-ply,SBD,M
