Place,Name,Division,BodyweightKg,Squat1Kg,Squat2Kg,Squat3Kg,Best3SquatKg,Bench1Kg,Bench2Kg,Bench3Kg,Best3BenchKg,Deadlift1Kg,Deadlift2Kg,Deadlift3Kg,Best3DeadliftKg,TotalKg,WeightClassKg,Sex,CyrillicName,BirthYear,Event,Equipment
1,Tetyana Redka,T1,43.95,55,65,70,70,-27.5,30,-35,30,55,65,-72.5,65,165,44,F,Тетяна Редька,1986,SBD,Single-ply
1,Taisiya Kuznetsova,J,47,160,165,-170,165,85,90,95,95,140,150,-160,150,410,48,F,Таїсія Кузнецова,1986,SBD,Single-ply
1,Yuliya Dolnikova,O,52,110,-120,120,120,45,50,55,55,110,115,130,130,305,52,F,Юлія Дольникова,1979,SBD,Single-ply
1,Lyudmyla Rossol,O,59.95,120,130,-140,130,80,87.5,92.5,92.5,135,145,-155,145,367.5,60,F,Людмила Россол,1975,SBD,Single-ply
DQ,Svitlana Sheremenko,M2,74.9,-150,-160,-160,,,,,,,,,,,75,F,Світлана Шеременко,1959,SBD,Single-ply
1,Nataliya Tsukanova,M3,80,140,150,160,160,70,77.5,80,80,140,150,160,160,400,82.5,F,Наталія Цуканова,1956,SBD,Single-ply
1,Irina Marar,T3,82.8,120,-140,-160,120,50,60,-65,60,100,120,127.5,127.5,307.5,90,F,Ірина Марарь,1989,SBD,Single-ply
1,Andriy Kozak,T2,47.8,70,85,-100,85,50,55,62.5,62.5,90,-105,105,105,252.5,52,M,Андрій Козак,1991,SBD,Single-ply
1,Evgen Leont'ev,T2,55.5,100,-115,125,125,65,-75,-75,65,125,140,150,150,340,56,M,Євген Леонть'єв,1990,SBD,Single-ply
1,Anatoliy Yarosh,T2,66.04,180,200,-210,200,100,105,-110,105,180,200,,200,505,67.5,M,Анатолій Ярош,1991,SBD,Single-ply
1,Anatoliy Koloda,T2,71.95,155,175,185,185,105,110,-115,110,165,175,-185,175,470,75,M,Анатолій Колода,1991,SBD,Single-ply
1,Peter Kravtsov,M5,71.4,142.5,152.5,157.5,157.5,100,105,,105,142.5,157.5,165,165,427.5,75,M,,1946,SBD,Single-ply
1,Oleksandr Loginov,M7,74.5,100,-110,-110,100,70,77.5,82.5,82.5,135,145,152.5,152.5,335,75,M,Олександр Логінов,1938,SBD,Single-ply
1,Sergiy Gladishev,T2,81.15,160,180,200,200,90,100,110,110,160,180,-200,180,490,82.5,M,Сергій Гладишев,1990,SBD,Single-ply
1,Vasil Nikolaev,T2,80,135,150,165,165,85,95,-100,95,155,170,185,185,445,82.5,M,Василь Ніколаєв,1991,SBD,Single-ply
1,Anatoliy Cherednichenko,M2,81,200,210,-227.5,210,105,-115,-115,105,200,215,-222.5,215,530,82.5,M,Анатолій Чередніченко,1956,SBD,Single-ply
1,Vasyl Borisov,M6,82.4,110,-120,120,120,67.5,72.5,-75,72.5,-120,120,135,135,327.5,82.5,M,Василь Борисов,1942,SBD,Single-ply
1,Oleksiy Zipa,T1,66.75,160,175,-182.5,175,80,85,-90,85,200,-220,-220,200,460,67.5,M,Олексій Зіпа,1992,SBD,Single-ply
1,Suradzh Chebotar,O,67,260,280,300,300,160,167.5,,167.5,210,225,232.5,232.5,700,67.5,M,Сурадж Чеботарь,1977,SBD,Single-ply
1,Artem Konyk,T3,75,240,-260,-275,240,140,150,160,160,230,-255,-255,230,630,75,M,Артем Коник,1989,SBD,Single-ply
1,Grygoriy Grygorenko,J,74.3,240,255,-265,255,150,160,167.5,167.5,215,232.5,-245,232.5,655,75,M,Григорій Григоренко,1987,SBD,Single-ply
2,Artur Dubinin,J,72.75,170,185,-200,185,125,135,-145,135,165,185,-195,185,505,75,M,Артур Дубінін,1987,SBD,Single-ply
DQ,Oleksiy Borovskiy,J,74.9,-260,-260,-260,,,,,,,,,,,75,M,Олексій Боровський,1986,SBD,Single-ply
1,Oleksandr Demchenko,T1,80.6,180,200,215,215,110,120,125,125,180,200,220,220,560,82.5,M,Олександр Демченко,1992,SBD,Single-ply
1,Kostyantin Chernov,J,81.3,260,-270,-270,260,185,195,200,200,225,240,-250,240,700,82.5,M,Костянтин Чернов,1984,SBD,Single-ply
2,Denis Onischenko,J,82.5,-275,275,-292.5,275,160,167.5,-172.5,167.5,205,222.5,-257.5,222.5,665,82.5,M,Денис Онищенко,1987,SBD,Single-ply
3,Denis Nazarenko,J,79,180,200,-215,200,100,115,120,120,180,200,-215,200,520,82.5,M,Денис Назаренко,1986,SBD,Single-ply
4,Yaroslav Uvarov,J,78.15,162.5,175,182.5,182.5,110,120,-130,120,162.5,-172.5,177.5,177.5,480,82.5,M,Ярослав Уваров,1987,SBD,Single-ply
DQ,Vladyslav Kuzmischev,O,82.5,-300,,,,,,,,,,,,,82.5,M,Владислав Кузьміщев,1983,SBD,Single-ply
1,Valeriy Dubikovskiy,M1,82.4,250,270,280,280,170,180,185,185,250,-270,-305,250,715,82.5,M,Валерій Дубиковський,1965,SBD,Single-ply
1,Pavlo Borovskiy,T3,89.5,290,-310,310,310,180,-190,-190,180,250,265,280,280,770,90,M,Павло Боровський,1988,SBD,Single-ply
2,Dmytro Korotych,T3,89.75,-290,290,-312.5,290,170,-185,-185,170,240,260,270,270,730,90,M,Дмитро Коротич,1988,SBD,Single-ply
1,Vyacheslav Shutenko,J,88.8,-310,320,340,340,150,165,175,175,300,-320,-320,300,815,90,M,Вячеслав Шутенко,1986,SBD,Single-ply
2,Sergey Stoyaltsev,J,88.75,260,290,310,310,175,-180,180,180,260,280,-290,280,770,90,M,Сергій Стояльцев,1987,SBD,Single-ply
3,Anton Galaguz,J,88.05,230,250,-265,250,140,150,160,160,210,225,235,235,645,90,M,Антон Галагуз,1986,SBD,Single-ply
4,Sergiy Besel,J,89.35,185,200,210,210,110,122.5,-130,122.5,185,205,220,220,552.5,90,M,Сергій Бессель,1984,SBD,Single-ply
DQ,Oleksandr Yaremchuk,O,87.6,200,210,215,215,-160,-160,-160,,,,,,,90,M,Олександр Яремчук,1973,SBD,Single-ply
1,Viktor Pastukhov,M1,88,260,-280,-290,260,170,187.5,195,195,205,225,-235,225,680,90,M,Віктор Пастухов,1967,SBD,Single-ply
1,Ivan Morgun,T2,96,230,-250,250,250,-150,-160,160,160,200,215,225,225,635,100,M,Иван Моргун,1990,SBD,Single-ply
1,Yaroslav Trubichkin,J,97.5,370,385,,385,220,-225,,220,280,300,-310,300,905,100,M,Ярослав Трубічкін,1987,SBD,Single-ply
2,Andriy Pombukhchiy,J,97.1,270,280,295,295,160,-170,-175,160,280,310,,310,765,100,M,Андрій Помбухчій,1984,SBD,Single-ply
3,Anatoliy Dmitrenko,J,94.6,240,260,-275,260,-160,-160,160,160,230,250,260,260,680,100,M,Анатолій Дмитренко,1987,SBD,Single-ply
1,Dmitro Petrenko,O,99.6,310,-320,-320,310,180,190,200,200,240,255,262.5,262.5,772.5,100,M,Дмитро Петренко,1979,SBD,Single-ply
DQ,Andriy Yaremus,O,100,-320,,,,,,,,,,,,,100,M,Андрій Яремус,1977,SBD,Single-ply
DQ,Evgeniy Pavlov,O,93.15,-260,-270,-270,,,,,,,,,,,100,M,Євгеній Павлов,1981,SBD,Single-ply
1,Sergiy Bershadskyy,M1,99,200,220,235,235,160,165,170,170,200,225,240,240,645,100,M,Сергій Бершадський,1963,SBD,Single-ply
DQ,Viktor Babenko,M1,94,220,230,240,240,-180,-180,-180,,,,,,,100,M,Віктор Бабенко,1963,SBD,Single-ply
1,Volodymyr Smischuk,J,104,320,340,360,360,210,235,-245,235,275,300,-310,300,895,110,M,Володимир Сміщук,1985,SBD,Single-ply
2,Dmitro Braga,J,102.5,240,260,-275,260,-130,140,150,150,230,-250,-250,230,640,110,M,Дмитро Брага,1985,SBD,Single-ply
DQ,Vladimir Opyata,J,103,-270,-270,270,270,-150,-160,,,,,,,,110,M,Володимир Опята,1986,SBD,Single-ply
DQ,Maksim Pogas,J,108.5,-250,-260,,,,,,,,,,,,110,M,Максим Погас,1985,SBD,Single-ply
1,Andriy Lyashko,O,120,390,-410,-420,390,240,-250,-250,240,300,320,330,330,960,125,M,Андрій Ляшко,1980,SBD,Single-ply
2,Sergiy Gor'kov,O,122,300,310,320,320,230,-240,-250,230,250,270,,270,820,125,M,Сергій Горьков,1983,SBD,Single-ply
3,Denis Dubrovskiy,O,112.5,270,-290,305,305,180,192.5,-200,192.5,270,285,300,300,797.5,125,M,Денис Дубровський,1980,SBD,Single-ply
1,Serhiy Oleolenko,O,133,380,-400,400,400,220,230,240,240,330,360,,360,1000,140,M,Сергій Олеоленко,1978,SBD,Single-ply
1,Svetlana Smirnova,T3,43.3,,,,,30,35,-40,35,,,,,35,44,F,Світлана Смірнова,1988,B,Single-ply
1,Taisiya Kuznetsova,J,47,,,,,85,92.5,97.5,97.5,,,,,97.5,48,F,Таїсія Кузнецова,1986,B,Single-ply
1,Viktoriya Gudz,O,48,,,,,70,-77.5,77.5,77.5,,,,,77.5,48,F,Вікторія Гудзь,1977,B,Single-ply
1,Yuliya Dolnikova,O,52,,,,,50,57.5,-60,57.5,,,,,57.5,52,F,Юлія Дольникова,1979,B,Single-ply
1,Lyudmyla Rossol,O,59.95,,,,,80,90,95,95,,,,,95,60,F,Людмила Россол,1975,B,Single-ply
1,Anna Kurkurina,M1,59.3,,,,,80,-90,95,95,,,,,95,60,F,Анна Куркуріна,1966,B,Single-ply
1,Natalya Zakharova,O,74.3,,,,,80,90,100,100,,,,,100,75,F,Наталя Захарова,1977,B,Single-ply
1,Nataliya Tsukanova,M3,80,,,,,70,75,80,80,,,,,80,82.5,F,Наталія Цуканова,1956,B,Single-ply
1,Valentin Kim,T2,59,,,,,75,85,92.5,92.5,,,,,92.5,60,M,Валентин Ким,1990,B,Single-ply
1,Oleg Suprunenko,T2,67.3,,,,,100,105,110,110,,,,,110,67.5,M,Олег Супруненко,1991,B,Single-ply
1,Dmitriy Nemchenko,J,67.4,,,,,125,132.5,137.5,137.5,,,,,137.5,67.5,M,Дмитро Немченко,1985,B,Single-ply
2,Artem Bernald,J,67.2,,,,,95,100,105,105,,,,,105,67.5,M,Артем Бернальд,1988,B,Single-ply
1,Danylo Korshunov,T2,70.4,,,,,140,150,-155,150,,,,,150,75,M,Данило Коршунов,1990,B,Single-ply
1,Arsen Kaseyev,M3,74,,,,,120,125,,125,,,,,125,75,M,Арсен Касєєв,1955,B,Single-ply
1,Peter Kravtsov,M5,70,,,,,95,102.5,-110,102.5,,,,,102.5,75,M,,1946,B,Single-ply
1,Oleksandr Loginov,M7,74.5,,,,,75,80,85,85,,,,,85,75,M,Олександр Логінов,1938,B,Single-ply
1,Oleksandr Nekhoroshev,M4,82.2,,,,,100,-105,-105,100,,,,,100,82.5,M,Олександр Нехорошев,1954,B,Single-ply
1,Vasyl Borisov,M6,82.3,,,,,65,70,75,75,,,,,75,82.5,M,Василь Борисов,1942,B,Single-ply
1,Vasil Chaykin,M3,86,,,,,120,-130,-135,120,,,,,120,90,M,Василий Чайкин,1954,B,Single-ply
1,Egor Parkhomenko,T2,96,,,,,105,110,-112.5,110,,,,,110,100,M,Егор Пархоменко,1991,B,Single-ply
1,Sergiy Dudnyk,M2,98,,,,,127.5,132.5,137.5,137.5,,,,,137.5,100,M,Сергій Дудник,1962,B,Single-ply
1,Pavlo Tselyuryk,M2,124.5,,,,,195,202.5,205,205,,,,,205,125,M,Павло Целюрик,1963,B,Single-ply
2,Vasyl' Golivets',M2,115.5,,,,,200,-215,-215,200,,,,,200,125,M,Василь Голівець,1960,B,Single-ply
1,Iskender Seytumerov,O,66.7,,,,,110,115,120,120,,,,,120,67.5,M,Іскендер Сейтумеров,1970,B,Single-ply
DQ,Yuriy Andrus,J,75,,,,,-180,-180,-180,,,,,,,75,M,Юрій Андрусь,1986,B,Single-ply
1,Oleksiy Borovskiy,O,74.8,,,,,100,140,155,155,,,,,155,75,M,Олексій Боровський,1986,B,Single-ply
1,Kostyantin Chernov,J,81.55,,,,,190,200,205,205,,,,,205,82.5,M,Костянтин Чернов,1984,B,Single-ply
1,Andriy Yakushin,O,81.8,,,,,-185,190,-200,190,,,,,190,82.5,M,Андрій Якушин,1973,B,Single-ply
2,Vadym Kotsaga,O,82.3,,,,,137.5,-145,-145,137.5,,,,,137.5,82.5,M,Вадим Коцага,1977,B,Single-ply
DQ,Pavlo Borovskiy,T3,90,,,,,-180,-190,-207.5,,,,,,,90,M,Павло Боровський,1988,B,Single-ply
1,Viktor Galaguz,J,89.5,,,,,180,-200,200,200,,,,,200,90,M,Віктор Галагуз,1984,B,Single-ply
DQ,Andriy Kopchak,J,89.9,,,,,-180,-190,-190,,,,,,,90,M,Андрій Копчак,1986,B,Single-ply
1,Oleksandr Bochkaryov,O,87.8,,,,,180,190,200,200,,,,,200,90,M,Олександр Бочкарьов,1977,B,Single-ply
2,Denys Borodenko,O,89.9,,,,,165,180,185,185,,,,,185,90,M,Денис Бороденко,1981,B,Single-ply
DQ,Yuriy Cherednichenko,O,88.5,,,,,-170,,,,,,,,,90,M,Юрій Чередніченко,1983,B,Single-ply
DQ,Vitaliy Petrov,O,89.7,,,,,-185,-190,-200,,,,,,,90,M,Виталий Петров,1977,B,Single-ply
1,Petro Onishchuk,T3,98,,,,,180,190,200,200,,,,,200,100,M,Петро Онищук,1988,B,Single-ply
1,Arkadiy Bukhtiychuk,O,92.5,,,,,265,-275,-275,265,,,,,265,100,M,Аркадій Бухтійчук,1975,B,Single-ply
2,Sergey Vereschak,O,99.6,,,,,230,-245,245,245,,,,,245,100,M,Сергій Верещак,1975,B,Single-ply
3,Vitaliy Dmitriev,O,99.8,,,,,205,215,-225,215,,,,,215,100,M,Віталій Дмитрієв,1970,B,Single-ply
4,Mikola Ion,O,100,,,,,215,-225,-225,215,,,,,215,100,M,Микола Іон,1974,B,Single-ply
5,Andriy Yaremus,O,100,,,,,190,200,-210,200,,,,,200,100,M,Андрій Яремус,1977,B,Single-ply
6,Sergiy Burik,O,96.35,,,,,172.5,182.5,190,190,,,,,190,100,M,Сергій Бурик,1976,B,Single-ply
7,Oleksandr Yazikov,O,100,,,,,180,190,-200,190,,,,,190,100,M,Олександр Язиков,1981,B,Single-ply
1,Aleksandr Beliznoy,M1,97,,,,,-245,245,-255,245,,,,,245,100,M,Олександр Белізний,1965,B,Single-ply
2,Viktor Babenko,M1,94,,,,,120,170,-180,170,,,,,170,100,M,Віктор Бабенко,1963,B,Single-ply
3,Valeriy Pikhurets,M1,95,,,,,115,120,-125,120,,,,,120,100,M,Валерій Піхурець,1964,B,Single-ply
1,Gennadiy Shikhatov,M4,99.1,,,,,190,202.5,-215,202.5,,,,,202.5,100,M,Геннадій Шихатов,1953,B,Single-ply
1,Sergiy Dellalov,T2,106.7,,,,,-210,-210,210,210,,,,,210,110,M,Сергій Делаллов,1990,B,Single-ply
1,Maksim Pogas,J,108.5,,,,,190,210,215,215,,,,,215,110,M,Максим Погас,1985,B,Single-ply
1,Sergiy Krylov,O,108.9,,,,,265,-280,-280,265,,,,,265,110,M,Сергій Крилов,1974,B,Single-ply
2,Vitaliy Chunikhovskiy,O,105.7,,,,,-227.5,227.5,-232.5,227.5,,,,,227.5,110,M,Віталій Чуніховський,1983,B,Single-ply
3,Yevhen Mazyukevych,O,109.8,,,,,195,200,210,210,,,,,210,110,M,Євген Мазюкевич,1972,B,Single-ply
DQ,Stanislav Nikolaenko,O,104.4,,,,,-230,-230,-230,,,,,,,110,M,Станіслав Ніколаєнко,1978,B,Single-ply
1,Oleksandr Semenyuk,M1,101,,,,,140,150,,150,,,,,150,110,M,Олександр Семенюк,1965,B,Single-ply
1,Vitaliy Soldatenko,O,114.55,,,,,-270,270,285,285,,,,,285,125,M,Віталій Солдатенко,1967,B,Single-ply
2,Oleksandr Krylov,O,116,,,,,-270,-275,275,275,,,,,275,125,M,Олександр Крилов,1974,B,Single-ply
3,Sergiy Danilov,O,119.2,,,,,235,250,-270,250,,,,,250,125,M,Сергій Данілов,1983,B,Single-ply
4,Fedir Verboviy,O,113.7,,,,,230,240,-250,240,,,,,240,125,M,Федір Вербовий,1973,B,Single-ply
DQ,Dmytro Zhvavyy,O,114.5,,,,,-260,-260,-270,,,,,,,125,M,Дмитро Жвавий,1978,B,Single-ply
DQ,Vitaliy Drebitko,O,123,,,,,-250,-265,-265,,,,,,,125,M,Віталій Дребитко,1983,B,Single-ply
1,Vitaliy Soldatenko,M1,114.55,,,,,-270,270,285,285,,,,,285,125,M,Віталій Солдатенко,1967,B,Single-ply
1,Aleksey Lisogor,J,148.7,,,,,195,210,217.5,217.5,,,,,217.5,140+,M,Алексей Лисогор,1986,B,Single-ply
