Division,WeightClassKg,Place,Name,Team,BodyweightKg,Best3SquatKg,Best3BenchKg,Best3DeadliftKg,TotalKg,Equipment,Event,Sex
Boys,51.71,1,Austin Mullennix,Sadler S & S Cons,51.66,188.24,86.18,158.76,433.18,Single-ply,SBD,M
Boys,51.71,2,Nick Sanchez,Georgetown,51.3,124.74,83.91,142.88,351.53,Single-ply,SBD,M
Boys,51.71,3,Nate Garza,Georgetown,50.67,131.54,74.84,140.61,347,Single-ply,SBD,M
Boys,51.71,4,Mario Perez,Weslaco,51.71,127.01,79.38,133.81,340.19,Single-ply,SBD,M
Boys,51.71,5,Rojae Kizzee,Trinity,49.26,68.04,43.09,88.45,199.58,Single-ply,SBD,M
Boys,55.79,1,Matthew Longoria,Alvin,55.79,192.78,142.88,190.51,526.17,Single-ply,SBD,M
Boys,55.79,2,Rushi Patel,College Station,54.61,163.29,90.72,172.37,426.38,Single-ply,SBD,M
Boys,55.79,3,ZaQuavion Golden,Hearne,55.61,133.81,81.65,158.76,374.21,Single-ply,SBD,M
Boys,55.79,4,Caleb Burleson,College Station,55.79,115.67,83.91,115.67,315.25,Single-ply,SBD,M
Boys,55.79,DQ,Samuel Garcia,Weslaco,55.7,117.93,,,,Single-ply,SBD,M
Boys,59.87,1,Aundrea Holmes,Trinity,59.74,190.51,102.06,183.7,476.27,Single-ply,SBD,M
Boys,59.87,2,Fernando Martinez,Weslaco,59.65,161.03,95.25,181.44,437.72,Single-ply,SBD,M
Boys,59.87,3,Jacob Barrera,Alvin,58.29,156.49,88.45,163.29,408.23,Single-ply,SBD,M
Boys,59.87,4,Carter Callahan,Burton,59.28,131.54,56.7,138.35,326.59,Single-ply,SBD,M
Boys,67.13,1,Trestan Hudnall,Killeen Ellison,63.96,199.58,124.74,201.85,526.17,Single-ply,SBD,M
Boys,67.13,2,Daniel Lozano,Weslaco,66.68,188.24,129.27,185.97,503.49,Single-ply,SBD,M
Boys,67.13,3,Brendan Alexander,Pollok Central,65.45,165.56,99.79,188.24,453.59,Single-ply,SBD,M
Boys,67.13,4,Ty Broussard,Alvin,67.13,158.76,99.79,156.49,415.04,Single-ply,SBD,M
Boys,67.13,5,William Ehlers,Hearne,67,142.88,79.38,170.1,392.36,Single-ply,SBD,M
Boys,67.13,DQ,Gavin Kirkland,Burton,60.15,,,,,Single-ply,SBD,M
Boys,74.84,1,Francisco Marin,Weslaco,74.8,272.16,151.95,231.33,655.44,Single-ply,SBD,M
Boys,74.84,2,Jett Ertle,Keller,74.03,240.4,129.27,226.8,596.47,Single-ply,SBD,M
Boys,74.84,3,Parker Hay,Trinity,73.03,217.72,133.81,213.19,564.72,Single-ply,SBD,M
Boys,74.84,4,Michael Smith,Buna,74.84,210.92,124.74,195.04,530.7,Single-ply,SBD,M
Boys,74.84,5,Kory Young,Killeen Ellison,73.12,210.92,115.67,192.78,519.36,Single-ply,SBD,M
Boys,74.84,6,Jared Hatcher,Buna,73.84,195.04,122.47,185.97,503.49,Single-ply,SBD,M
Boys,74.84,7,Marc Banda,Alvin,70.4,197.31,99.79,199.58,496.68,Single-ply,SBD,M
Boys,74.84,8,Rodrigo Valdez,College Station,74.75,181.44,111.13,188.24,480.81,Single-ply,SBD,M
Boys,74.84,9,Jake Chandler,Burton,74.16,170.1,111.13,190.51,471.74,Single-ply,SBD,M
Boys,74.84,10,Daniel Cobia,Smithville,74.84,174.63,108.86,185.97,469.47,Single-ply,SBD,M
Boys,74.84,11,Efren Ramirez,Alvin,70.9,172.37,117.93,174.63,464.93,Single-ply,SBD,M
Boys,74.84,12,Charlie Reyes,Burton,71.03,163.29,92.99,197.31,453.59,Single-ply,SBD,M
Boys,74.84,13,Fabricio Williams,Georgetown,73.75,158.76,113.4,181.44,453.59,Single-ply,SBD,M
Boys,74.84,14,Conner Smith,Sadler S & S Cons,74.62,161.03,102.06,181.44,444.52,Single-ply,SBD,M
Boys,74.84,15,Cedrion Golden,Hearne,73.07,149.69,97.52,188.24,435.45,Single-ply,SBD,M
Boys,82.1,1,Robert La Buff,Weslaco,80.97,244.94,147.42,233.6,625.96,Single-ply,SBD,M
Boys,82.1,2,Mark Vavra,Bryan,82.1,219.99,145.15,190.51,555.65,Single-ply,SBD,M
Boys,82.1,3,Robert Nicholas,Killeen Ellison,77.47,195.04,104.33,208.65,508.02,Single-ply,SBD,M
Boys,82.1,4,JC Pedraza,Weslaco,81.96,197.31,133.81,174.63,505.76,Single-ply,SBD,M
Boys,82.1,5,Dominic Gomez,Killeen Ellison,80.38,199.58,102.06,199.58,501.22,Single-ply,SBD,M
Boys,82.1,6,David Aviles,Alvin,77.47,190.51,113.4,183.7,487.61,Single-ply,SBD,M
Boys,82.1,7,Jacob Forsythe,Pollok Central,79.02,183.7,102.06,181.44,467.2,Single-ply,SBD,M
Boys,82.1,DQ,Kalob Jonas,Smithville,77.7,,,,,Single-ply,SBD,M
Boys,82.1,DQ,Connor Glass,Sadler S & S Cons,78.97,,,,,Single-ply,SBD,M
Boys,89.81,1,JaShaughn Hatcher,Fairfield,85.73,226.8,138.35,267.62,632.76,Single-ply,SBD,M
Boys,89.81,2,Ben Wolz,College Station,89.18,244.94,122.47,238.14,605.55,Single-ply,SBD,M
Boys,89.81,3,Zeke Lozano,Weslaco,87,222.26,136.08,192.78,551.11,Single-ply,SBD,M
Boys,89.81,4,Sean Dudo,College Station,88.99,192.78,113.4,179.17,485.34,Single-ply,SBD,M
Boys,89.81,5,Caleb Harmel,Burton,87.77,170.1,92.99,195.04,458.13,Single-ply,SBD,M
Boys,99.79,1,Marcus Fabela,Buna,98.61,254.01,145.15,226.8,625.96,Single-ply,SBD,M
Boys,99.79,2,Brandon Phillips,Trinity,98.16,226.8,154.22,197.31,578.33,Single-ply,SBD,M
Boys,99.79,3,Garrett King,Trinity,97.52,210.92,124.74,226.8,562.45,Single-ply,SBD,M
Boys,99.79,4,Mason Cochran,College Station,95.07,226.8,102.06,195.04,523.9,Single-ply,SBD,M
Boys,99.79,5,Dominic Napier,Pollok Central,94.89,165.56,124.74,167.83,458.13,Single-ply,SBD,M
Boys,109.77,1,Truce Tumlinson,College Station,107,251.74,124.74,226.8,603.28,Single-ply,SBD,M
Boys,109.77,2,Davis Wood,College Station,107.41,233.6,136.08,204.12,573.79,Single-ply,SBD,M
Boys,109.77,3,Robbie Gregg,Smithville,105.82,183.7,113.4,170.1,467.2,Single-ply,SBD,M
Boys,109.77,4,Lance Hamm,Hearne,103.19,151.95,97.52,156.49,405.97,Single-ply,SBD,M
Boys,124.74,1,Veshawn Shellman,Killeen Ellison,117.75,258.55,158.76,256.28,673.58,Single-ply,SBD,M
Boys,124.74,2,Antares Gillespie,Killeen Ellison,111.67,238.14,142.88,263.08,644.1,Single-ply,SBD,M
Boys,124.74,3,Pedro Garcia,Alvin,123.92,242.67,140.61,242.67,625.96,Single-ply,SBD,M
Boys,124.74,4,Adrian Fuentes,Weslaco,112.54,254.01,149.69,219.99,623.69,Single-ply,SBD,M
Boys,124.74,5,Aaron Mata,Alvin,121.43,244.94,149.69,229.06,623.69,Single-ply,SBD,M
Boys,124.74,6,Austin Cardenas,Weslaco,119.84,242.67,149.69,210.92,603.28,Single-ply,SBD,M
Boys,124.74,7,Nick Touch,Alvin,113.58,244.94,140.61,215.46,601.01,Single-ply,SBD,M
Boys,124.74,8,Ethan Psencik,Smithville,113.67,199.58,115.67,190.51,505.76,Single-ply,SBD,M
Boys,124.74,9,Hunter Nobles,Sadler S & S Cons,118.12,199.58,99.79,204.12,503.49,Single-ply,SBD,M
Boys,124.74,10,Joshua Jett,Georgetown,111.4,181.44,113.4,181.44,476.27,Single-ply,SBD,M
Boys,124.74,DQ,Dylan Woods,Hearne,117.48,242.67,120.2,,,Single-ply,SBD,M
Boys,124.74+,1,Keith Jackson II,Killeen Ellison,166.06,294.84,165.56,251.74,712.14,Single-ply,SBD,M
Boys,124.74+,2,Thomas Ratka,Alvin,126.82,288.03,176.9,244.94,709.87,Single-ply,SBD,M
Boys,124.74+,3,Kaleb Barho,Smithville,125.55,278.96,151.95,226.8,657.71,Single-ply,SBD,M
Boys,124.74+,4,Gus Pinner,Pollok Central,130.59,274.42,138.35,226.8,639.57,Single-ply,SBD,M
Boys,124.74+,5,Noah Barajas,Alvin,140.11,251.74,140.61,217.72,610.08,Single-ply,SBD,M
Boys,124.74+,DQ,Brok Garcia,Smithville,147.19,,,,,Single-ply,SBD,M
Boys,124.74+,DQ,JVarious Sullivan,Bryan,128.14,,,,,Single-ply,SBD,M
Boys,124.74+,DQ,Samuel Perez,Weslaco,129.82,272.16,156.49,,,Single-ply,SBD,M
