Sex,Division,WeightClassKg,Name,CyrillicName,BodyweightKg,Squat1Kg,Squat2Kg,Squat3Kg,Best3SquatKg,Bench1Kg,Bench2Kg,Bench3Kg,Best3BenchKg,Deadlift1Kg,Deadlift2Kg,Deadlift3Kg,Best3DeadliftKg,TotalKg,Event,Equipment,Place
M,Masters,75,Yakov Inberg,Яков Инберг,74,-100,-100,-100,,,,,,,,,,,SBD,Wraps,DQ
F,Open,75,Elena Yazina,Елена Язина,74,-90,-90,95,95,45,-47.5,-47.5,45,100,105,110,110,250,SBD,Wraps,1
M,Juniors,75,Anton Pchelkin,Антон Пчелкин,68.9,-140,140,145,145,70,-75,-75,70,145,150,160,160,375,SBD,Wraps,1
M,Open,67.5,Aleksey Rastrepin,Алексей Растрепин,66.6,120,125,135,135,75,-80,-80,75,125,135,155,155,365,SBD,Wraps,5
M,Open,75,Nikolay Dokuchaev,Николай Докучаев,71.2,145,-155,-155,145,80,-85,-85,80,170,180,-185,180,405,SBD,Wraps,2
M,Juniors,82.5,Pavel Nikulin,Павел Никулин,77.2,150,165,175,175,-90,90,-95,90,160,170,-180,170,435,SBD,Wraps,1
F,Open,67.5,Polina Kulkova,Полина Кулькова,65.1,120,130,-140,130,-60,60,-65,60,130,140,-155,140,330,SBD,Wraps,1
F,Open,56,Yuliya Borisova,Юлия Борисова,55.3,90,97.5,105,105,60,65,-70,65,-120,120,130,130,300,SBD,Wraps,1
M,Open,75,Andrey Ustinov,Андрей Устинов,71.8,140,150,-160,150,105,110,115,115,180,190,200,200,465,SBD,Wraps,1
M,Open,67.5,Vladimir Beletskiy,Владимир Белецкий,,-180,-180,180,180,100,-110,110,110,-160,-160,160,160,450,SBD,Wraps,4
M,Open,67.5,Aleksandr Rek,Александр Рек,67.5,167.5,177.5,182.5,182.5,102.5,107.5,-112.5,107.5,172.5,180,185,185,475,SBD,Wraps,3
M,Open,67.5,Yuriy Nikitchenko,Юрий Никитченко,66.4,190,200,210,210,120,125,130,130,190,200,-215,200,540,SBD,Wraps,2
M,Open,67.5,Petr Tishchenko,Петр Тищенко,67.2,165,175,-180,175,147.5,155,-157.5,155,-220,230,237.5,237.5,567.5,SBD,Wraps,1
M,Masters,125,Dmitriy Rakcheev,Дмитрий Ракчеев,120.7,260,280,300,300,150,-160,,150,250,270,280,280,730,SBD,Wraps,1
M,Open,90,Kirill Lebedev,Кирилл Лебедев,86.6,230,245,260,260,135,145,152.5,152.5,220,240,252.5,252.5,665,SBD,Wraps,1
M,Open,110,Andrey Butko,Андрей Бутко,105.7,215,225,235,235,145,155,-162.5,155,245,255,270,270,660,SBD,Wraps,1
M,Open,100,Sergey Morev,Сергей Морев,97.8,220,-235,240,240,130,140,150,150,210,230,250,250,640,SBD,Wraps,1
M,Open,82.5,Evgeniy Zamamykin,Евгений Замамыкин,81,220,-230,-230,220,155,160,-165,160,220,230,235,235,615,SBD,Wraps,1
M,Open,110,Igor Ivanov,Ігор Іванов,108.1,210,220,235,235,125,135,145,145,210,225,235,235,615,SBD,Wraps,2
M,Open,82.5,Anton Anikanov,Антон Аниканов,82,,180,200,200,150,160,-165,160,220,240,250,250,610,SBD,Wraps,2
M,Open,90,Khayam Zamanov,Хайам Заманов,87.6,200,220,230,230,125,130,-135,130,230,240,-250,240,600,SBD,Wraps,2
M,Open,90,Yuriy Sherstnev,Юрий Шерстнев,88.6,185,195,205,205,130,137.5,145,145,200,215,230,230,580,SBD,Wraps,3
M,Juniors,90,Roman Lyodov,Роман Лёдов,88.2,130,140,150,150,-110,115,120,120,150,165,177.5,177.5,447.5,SBD,Wraps,1
M,Open,90,Dmitriy Sumnikov,Дмитрий Сумников,85.2,140,155,-170,155,100,110,-115,110,155,165,175,175,440,SBD,Wraps,4
M,Open,82.5,Sergey Varitchenko,Сергей Варитченко,81.3,-130,,,,,,,,,,,,,SBD,Wraps,DQ
M,Open,90,Aleksandr Dombrovskiy,Александр Домбровский,90,-230,-230,-230,,,,,,,,,,,SBD,Wraps,DQ
M,Open,100,Aleksandr Lokhadynov,Александр Лохадынов,93.3,-205,-205,-205,,,,,,,,,,,SBD,Wraps,DQ
M,Open,125,Ivan Komissarov,Иван Комиссаров,122,-340,-340,-340,,,,,,,,,,,SBD,Wraps,DQ
M,Masters,125,Mikhail Nikolaev,Михаил Николаев,123.5,,,,,190,200,-205,200,,,,,200,B,Raw,1
M,Masters,125,Dmitry Shvedov-Viardo,Дмитрий Шведов-Виардо,124.5,,,,,180,185,190,190,,,,,190,B,Raw,2
M,Masters,110,Sergey Verzhanovskiy,Сергей Вержановский,102.9,,,,,190,-195,-195,190,,,,,190,B,Raw,1
F,Open,75,Darya Kogadeeva,Дарья Когадеева,69.5,,,,,110,115,120,120,,,,,120,B,Raw,1
M,Juniors,75,Vitaliy Zhukov,Виталий Жуков,67.6,,,,,107.5,-112.5,112.5,112.5,,,,,112.5,B,Raw,1
F,Open,75,Yuliya Shvedova-Viardo,Юлия Шведова-Виардо,70.7,,,,,77.5,82.5,85,85,,,,,85,B,Raw,2
M,Juniors,67.5,Ivan Zmiyov,Иван Змиёв,64.4,,,,,55,-60,65,65,,,,,65,B,Raw,1
F,Open,56,Nadezhda Vlasova,Надежда Власова,53.5,,,,,57.5,62.5,65,65,,,,,65,B,Raw,1
F,Open,67.5,Ekaterina Dyachkova,Екатерина Дъячкова,63.4,,,,,60,-65,65,65,,,,,65,B,Raw,1
M,Juniors,52,Vlad Shchetinkin,Влад Щетинкин,49.8,,,,,50,55,60,60,,,,,60,B,Raw,1
F,Open,75,Nadezhda Petunkina,Надежда Петункина,68.5,,,,,50,57.5,-67.5,57.5,,,,,57.5,B,Raw,3
F,Open,56,Elena Golubeva,Елена Голубева,52.4,,,,,50,55,-57.5,55,,,,,55,B,Raw,2
F,Open,67.5,Nadezhda Purgaeva,Надежда Пургаева,63.3,,,,,35,40,-45,40,,,,,40,B,Raw,2
M,Open,110,Igor Lipachev,Игорь Липачев,109.3,,,,,220,230,-235,230,,,,,230,B,Raw,1
M,Open,100,Viktor Kulik,Виктор Кулик,96.1,,,,,200,210,-215,210,,,,,210,B,Raw,1
M,Open,100,Aleksandr Pagin,Александр Пагин,97.5,,,,,190,195,-205,195,,,,,195,B,Raw,2
M,Open,90,Aleksey Blintsov,Алексей Блинцов,86.5,,,,,185,192.5,-195,192.5,,,,,192.5,B,Raw,1
M,Open,100,Igor Svishchev,Игорь Свищев,96.3,,,,,,190,-200,190,,,,,190,B,Raw,3
M,Open,82.5,Ilya Pankratov,Илья Панкратов,81.5,,,,,180,187.5,-190,187.5,,,,,187.5,B,Raw,1
M,Open,110,Andrey Gogolev,Андрей Гоголев,106.5,,,,,160,170,180,180,,,,,180,B,Raw,2
M,Open,82.5,Aleksandr Belskikh,Александр Бельских,81,,,,,175,-180,180,180,,,,,180,B,Raw,2
M,Open,110,Nikita Anisimov,Никита Анисимов,110,,,,,160,175,-190,175,,,,,175,B,Raw,3
M,Open,100,Aleksandr Gusev,Александр Гусев,99.8,,,,,135,-145,155,155,,,,,155,B,Raw,4
M,Open,82.5,Roman Shchekleev,Роман Щеклеев,80.1,,,,,127.5,137.5,142.5,142.5,,,,,142.5,B,Raw,3
M,Open,75,Artem Sokolov,Артем Соколов,75,,,,,120,130,140,140,,,,,140,B,Raw,1
M,Open,110,Stepan Didyk,Степан Дидык,107.3,,,,,140,-150,-150,140,,,,,140,B,Raw,4
M,Open,90,Denis Mantsurov,Денис Манцуров,87.4,,,,,130,-150,-155,130,,,,,130,B,Raw,2
M,Open,90,Pavel Chukanov,Павел Чуканов,90,,,,,90,100,110,110,,,,,110,B,Raw,3
M,Open,75,Nikolay Petrokovich,Николай Петрокович,73.5,,,,,80,90,102.5,102.5,,,,,102.5,B,Raw,2
M,Open,100,Timur Frozov,Тимур Фрозов,91.1,,,,,90,100,-110,100,,,,,100,B,Raw,5
M,Pro,125,Vladimir Kravtsov,Владимир Кравцов,124.8,,,,,280,302.5,-305,302.5,,,,,302.5,B,Raw,1
M,Pro,110,Sergey Popov,Сергей Попов,104.7,,,,,230,237.5,245,245,,,,,245,B,Raw,1
M,Pro,125+,Igor Lomov,Игорь Ломов,136,,,,,230,240,-242.5,240,,,,,240,B,Raw,1
M,Open,125+,Denis Sidorov,Денис Сидоров,150,,,,,200,215,-225,215,,,,,215,B,Raw,1
M,Open,125,Roman Zalutskiy,Роман Залуцкий,120,,,,,200,210,,210,,,,,210,B,Raw,1
M,Open,125+,Aleksandr Oreshkin,Александр Орешкин,128.1,,,,,185,190,192.5,192.5,,,,,192.5,B,Raw,2
M,Open,125,Grigoriy Sakharov,Григорий Сахаров,122.9,,,,,180,190,-200,190,,,,,190,B,Raw,2
M,Open,125,Dmitriy Kuleshov,Дмитрий Кулешов,121.1,,,,,162.5,172.5,180,180,,,,,180,B,Raw,3
