Division,WeightClassKg,Place,Name,Team,BodyweightKg,Best3SquatKg,Best3BenchKg,Best3DeadliftKg,TotalKg,Equipment,Event,Sex
Boys,51.71,1,Dalton Benson,Clarendon,51.35,92.99,52.16,113.4,258.55,Single-ply,SBD,M
Boys,55.79,1,Talon Romero,Amarillo Highland Park,53.07,142.88,95.25,151.95,390.09,Single-ply,SBD,M
Boys,55.79,2,Kevin Nguyen #8,Amarillo Highland Park,55.79,129.27,74.84,142.88,347,Single-ply,SBD,M
Boys,55.79,3,Sergio Romero,Childress,55.75,131.54,70.31,136.08,337.93,Single-ply,SBD,M
Boys,55.79,4,Bryan Nguyen,Amarillo Highland Park,54.88,106.59,61.23,111.13,278.96,Single-ply,SBD,M
Boys,59.87,1,Ray Jaramillo,Clarendon,59.87,151.95,92.99,167.83,412.77,Single-ply,SBD,M
Boys,59.87,2,Bryan Tran,Amarillo Highland Park,59.51,151.95,86.18,172.37,410.5,Single-ply,SBD,M
Boys,59.87,3,Juan Moreno,Amarillo Highland Park,58.88,113.4,79.38,147.42,340.19,Single-ply,SBD,M
Boys,59.87,4,Ryan McClesky,Clarendon,56.97,122.47,70.31,142.88,335.66,Single-ply,SBD,M
Boys,67.13,1,Zachary Downing,Wichita Falls Hirschi,66.32,183.7,102.06,192.78,478.54,Single-ply,SBD,M
Boys,67.13,2,Terrin Campbell,Amarillo Highland Park,65.68,172.37,97.52,183.7,453.59,Single-ply,SBD,M
Boys,67.13,3,John Leija,Vernon,66.04,163.29,104.33,181.44,449.06,Single-ply,SBD,M
Boys,67.13,4,Deven Anders,Henrietta,65.32,165.56,104.33,147.42,417.3,Single-ply,SBD,M
Boys,67.13,5,Cody Castor,Childress,63.41,136.08,83.91,149.69,369.68,Single-ply,SBD,M
Boys,67.13,6,Brysan Garrard,Vernon,65.95,136.08,77.11,136.08,349.27,Single-ply,SBD,M
Boys,67.13,7,Chad Thomas,Vernon,66.13,111.13,77.11,140.61,328.85,Single-ply,SBD,M
Boys,67.13,8,Nick Leal,Amarillo Highland Park,63.05,115.67,68.04,136.08,319.78,Single-ply,SBD,M
Boys,74.84,1,Isaiah White,Wichita Falls Hirschi,73.94,204.12,97.52,192.78,494.42,Single-ply,SBD,M
Boys,74.84,2,Marcus King,Wichita Falls,74.48,192.78,104.33,188.24,485.34,Single-ply,SBD,M
Boys,74.84,3,Tylor Genn,Memphis,74.84,176.9,136.08,165.56,478.54,Single-ply,SBD,M
Boys,74.84,4,Thomas Adams #3,Childress,74.21,165.56,97.52,190.51,453.59,Single-ply,SBD,M
Boys,74.84,5,Ethan Ballard,Clarendon,74.75,154.22,95.25,174.63,424.11,Single-ply,SBD,M
Boys,74.84,6,Gerrick McKinney,Wichita Falls Hirschi,73.21,147.42,86.18,183.7,417.3,Single-ply,SBD,M
Boys,74.84,7,Daquawne Oliver,Clarendon,68.13,158.76,79.38,174.63,412.77,Single-ply,SBD,M
Boys,74.84,8,Martez Vrana,Wichita Falls Hirschi,72.3,136.08,81.65,156.49,374.21,Single-ply,SBD,M
Boys,74.84,9,Josh Kelly,Childress,72.44,136.08,86.18,151.95,374.21,Single-ply,SBD,M
Boys,74.84,10,Dmitry Lawrence,Wichita Falls Hirschi,72.76,102.06,92.99,158.76,353.8,Single-ply,SBD,M
Boys,74.84,11,Dalton Reagan,Vernon,72.67,131.54,74.84,138.35,344.73,Single-ply,SBD,M
Boys,74.84,12,Quade McFall,Vernon,74.66,124.74,65.77,142.88,333.39,Single-ply,SBD,M
Boys,74.84,13,Benji Soto,Wichita Falls,67.77,115.67,74.84,136.08,326.59,Single-ply,SBD,M
Boys,82.1,1,Garet Gill,Wichita Falls,76.48,201.85,111.13,183.7,496.68,Single-ply,SBD,M
Boys,82.1,2,Keishun Hickerson,Wichita Falls,78.11,183.7,92.99,204.12,480.81,Single-ply,SBD,M
Boys,82.1,3,Dat Luu,Amarillo Highland Park,80.83,174.63,99.79,199.58,474,Single-ply,SBD,M
Boys,82.1,4,Brent McCallon,Vernon,77.66,181.44,97.52,181.44,460.4,Single-ply,SBD,M
Boys,82.1,5,Juan Salazar,Vernon,80.65,165.56,104.33,190.51,460.4,Single-ply,SBD,M
Boys,82.1,6,Josh Ealom,Vernon,82.01,154.22,97.52,181.44,433.18,Single-ply,SBD,M
Boys,82.1,7,TJ Story,Vernon,79.74,147.42,95.25,170.1,412.77,Single-ply,SBD,M
Boys,82.1,8,Jaime Lizama,Childress,79.47,158.76,86.18,149.69,394.63,Single-ply,SBD,M
Boys,82.1,DQ,Cameron Calhoun,Wichita Falls Hirschi,75.93,142.88,,,,Single-ply,SBD,M
Boys,89.81,1,Courtney Gravely,Amarillo Highland Park,89.27,226.8,136.08,242.67,605.55,Single-ply,SBD,M
Boys,89.81,2,Alex Guerrero,Childress,89.72,206.38,142.88,247.21,596.47,Single-ply,SBD,M
Boys,89.81,3,Blaine McGregor,Amarillo Highland Park,85.55,206.38,136.08,217.72,560.19,Single-ply,SBD,M
Boys,89.81,4,Roman Turner,Wichita Falls Hirschi,86.09,174.63,122.47,197.31,494.42,Single-ply,SBD,M
Boys,89.81,5,Adrian Arthur,Wichita Falls Hirschi,89.63,179.17,102.06,192.78,474,Single-ply,SBD,M
Boys,89.81,6,Tanner Mills,Childress,86.68,149.69,97.52,161.03,408.23,Single-ply,SBD,M
Boys,89.81,7,Augustine Moreno,Amarillo Highland Park,87.45,140.61,86.18,149.69,376.48,Single-ply,SBD,M
Boys,99.79,1,Jose Morin,Memphis,99.25,172.37,142.88,199.58,514.83,Single-ply,SBD,M
Boys,99.79,2,Reyes Ferrusquia,Memphis,92.99,190.51,136.08,183.7,510.29,Single-ply,SBD,M
Boys,99.79,3,Emmanuel Hernandez #3,Wichita Falls Hirschi,96.43,158.76,81.65,181.44,421.84,Single-ply,SBD,M
Boys,99.79,4,Patrick Cheney,Amarillo Highland Park,97.07,147.42,97.52,165.56,410.5,Single-ply,SBD,M
Boys,99.79,5,Jacob Galloway,Wichita Falls,97.25,151.95,74.84,140.61,367.41,Single-ply,SBD,M
Boys,109.77,1,Joe Rodriguez,Childress,108.45,199.58,147.42,208.65,555.65,Single-ply,SBD,M
Boys,109.77,2,Rhett Buckley,Childress,106.5,217.72,124.74,195.04,537.51,Single-ply,SBD,M
Boys,109.77,3,Preston Newman,Vernon,106.59,181.44,117.93,190.51,489.88,Single-ply,SBD,M
Boys,109.77,4,Javier Juarez,Childress,103.87,170.1,99.79,154.22,424.11,Single-ply,SBD,M
Boys,109.77,5,Cesar Maestas,Memphis,106.87,142.88,97.52,163.29,403.7,Single-ply,SBD,M
Boys,109.77,6,Isaiah Villalobos,Wichita Falls,109.41,102.06,74.84,136.08,312.98,Single-ply,SBD,M
Boys,124.74,1,Edgar Ramirez,Wichita Falls Hirschi,119.29,226.8,113.4,204.12,544.31,Single-ply,SBD,M
Boys,124.74,2,Austin McCarty,Childress,116.35,208.65,129.27,190.51,528.44,Single-ply,SBD,M
Boys,124.74,3,Victor Ruiz,Childress,111.27,68.04,49.9,97.52,215.46,Single-ply,SBD,M
Boys,124.74,DQ,Carlos Romero #1,Childress,124.24,219.99,111.13,,,Single-ply,SBD,M
Boys,124.74+,1,Deondre Clark,Wichita Falls Hirschi,130.73,272.16,136.08,195.04,603.28,Single-ply,SBD,M
Boys,124.74+,2,Dontryll Dever,Wichita Falls,134.54,233.6,147.42,213.19,594.21,Single-ply,SBD,M
Boys,124.74+,3,Stephen Mosier,Memphis,126.19,238.14,113.4,208.65,560.19,Single-ply,SBD,M
Boys,124.74+,4,Jacob Venable,Wichita Falls,138.98,215.46,104.33,188.24,508.02,Single-ply,SBD,M
Boys,124.74+,5,Todd Beebe,Vernon,127.64,174.63,102.06,181.44,458.13,Single-ply,SBD,M
Boys,124.74+,6,Aytch Warrier,Wichita Falls,152.32,172.37,95.25,154.22,421.84,Single-ply,SBD,M
Boys,124.74+,7,Daniel Munoz,Memphis,133.9,136.08,74.84,140.61,351.53,Single-ply,SBD,M
