Name,Count
A. Li,2
A. Myers,3
A. Smith,12
A. Wilson,6
Aaron Adams,2
Aaron Allen,2
Aaron Cooper,2
Aaron Tate,2
Aaron Thomas,7
Adam Anderson,3
Adam Bell,2
Adam Guerrero,2
Adam Jackson,3
Adam Jones,9
Adam Miller,9
Adam Scott,2
Alan Chan,2
Alan Hernandez,8
Alasdair MacLeod,2
Alejandro Maldonado,3
Aleksandr Aleksandrov,3
Aleksandr Koshelev,2
Alex Buck,2
Alex Campbell,4
Alex Chen,2
Alex Davies,2
Alex Diaz,3
Alex Howe,2
Alex Morrison,2
Alex Palmer,2
Alex Torres,2
Alex Turner,3
Alexander Hickman,2
Allen Clark,2
Allen Davis,3
Allen Fisher,2
Allen Smith,2
Álvaro Fernández Ramos,2
Amanda Reilly,2
Amanda Thompson,3
Amanda Walker,2
Ana Perez,3
Andreas Nilsson,2
Andrew Adams,2
Andrew Cargill,2
Andrew Kelleher,2
Andrew Lamb,3
Andrew Murphy,4
Andrew Smith,16
Andrew Watt,2
Andrews,4
Andrey Belyaev,2
Andrey Chesnokov,2
Andrey Konovalov,3
Andy Adams,2
Andy Davies,2
Andy Hernandez,2
Andy Huang,2
Angel Gonzalez,4
Angel Hernandez,12
Anthony Bui,3
Anthony Cooper,5
Anthony Davis,3
Anthony Hambric,2
Anthony Harris,2
Anthony Nguyen,2
Anthony Thompson,4
Anthony White,4
Anthony Young,4
Artem Safonov,2
Ashley Armstrong,2
Ashley Butler,2
Ashley Roberts,2
Ashley Schultz,2
Austin Martin,3
B. Crow,3
B. Dunn,3
B. Easley,2
B. Hall,3
B. Leach,2
B. Miller,9
B. Moore,8
B. Oden,2
B. Ray,2
B. Rush,2
Bailey Jones,4
Barbara Lee,2
Beau Moore,2
Ben Jackson,3
Ben Johnson,8
Ben Miller,4
Ben Nelson,3
Ben Scott,3
Ben Wallace,2
Ben Wright,2
Benjamin Smith,6
Benjamin Wilson,3
Bill Grant,2
Bill Kelly,2
Blake Richards,2
Bob Evans,2
Bobby Adams,3
Bobby Morgan,2
Brad Johnson,2
Brad Lewis,2
Bradley Horne,2
Brandon Allen,3
Brandon Byrd,3
Brandon Maddox,2
Brandon Matthews,3
Brandon Rios,2
Brandon Scott,4
Brandon Simpson,5
Brandon Stephens,2
Brandon Stevens,3
Brandon Turner,7
Brayden Walker,2
Brian Bland,2
Brian Clark,2
Brian Curtis,2
Brian Goldstein,2
Brian Hall,3
Brian Sullivan,2
Bryce Johnson,3
Bryden Wilson,2
Byron Johnson,2
C. Able,2
C. Alitz,2
C. Brown,17
C. Rowe,3
Cameron Collins,3
Cameron Smith,9
Carl Thompson,2
Carlos Perez,6
Carlos Reyes,3
Carlos Romero,3
Carson Roberts,2
Casey Clark,3
Casey Williams,3
Catherine White,2
Cesar Jimenez,2
Charles Anderson,2
Charles Harris,2
Chase Patterson,3
Chen,3
Chris Bartley,2
Chris Blair,2
Chris Butler,4
Chris Davey,2
Chris Gonzales,4
Chris Grant,2
Chris Hughes,5
Chris Janssen,2
Chris Jenkins,11
Chris Jones,24
Chris Kennedy,2
Chris Lane,2
Chris Larson,2
Chris Mason,3
Chris Mitchell,4
Chris Moody,2
Chris Morris,6
Chris Pugh,2
Chris Stark,2
Chris Williams,13
Christian Aquino,2
Christian Moore,2
Christian Navarro,4
Christian Williams,5
Christine Miller,2
Christopher Bell,2
Christopher Young,3
Claire Taylor,2
Clayton Wilson,2
Clinton Lee,2
Cody Hanson,2
Cody Prather,2
Cody Thornton,2
Cole Barton,4
Cole Smith,5
Colin Wright,2
Collin Grant,2
Connor Lynch,2
Corey Grisham,2
Cortney Young,2
Courtney Smith,2
Cristian Garcia,3
Cristian Gonzalez,3
Curtis Miller,3
D. Angelo,2
D. Evans,7
D. Hein,2
D. Martin,7
D. Raymond,2
D. Ross,4
D. Taylor,6
D. Wilson,15
Dan Brown,3
Dan Howard,2
Dan Martinez,2
Dan Mason,5
Dan Thompson,2
Daniel Bell,3
Daniel Brown,5
Daniel Clarke,2
Daniel Cook,3
Daniel Dale,2
Daniel Heller,2
Daniel Moreno,3
Daniel Rodriguez,8
Daniel Thomas,2
Daniel Vo,2
Daniel Wade,4
Daniel Watson,4
Danny Rodriguez,2
Danny Smith,3
Darren Smith,3
Dave Brown,4
Dave Crawford,3
Dave Kennedy,2
Dave Richardson,4
Dave Smith,9
David Alexander,2
David Anderson,7
David Andrews,3
David Baker,3
David Bennett,5
David Carroll,2
David Carter,7
David Cooper,3
David Courtney,2
David Decanini,2
David Farkas,2
David Green,4
David Herrera,3
David Hughes,4
David Koch,3
David Martin,9
David Martinez,17
David Nilsson,2
David Osborn,2
David Patterson,4
David Ramsey,2
David Shepherd,2
David Son,7
David Torres,5
David Vaughan,2
David Wagner,3
David Watkins,2
David Watson,4
David Williams,9
David Williamson,2
Denis Chernov,4
Dennis Arnold,2
Dennis Wright,2
Diego Perez,5
Dillon Anderson,2
Dillon Peterson,2
Dmitriy Sedov,2
Dominique Fisher,2
Don Johnson,4
Don Jones,3
Donnie Thompson,2
Duy Tran,3
Dylan Crawford,2
E. Godfrey,3
Ed Riley,3
Eduardo Garcia,6
Edward Owen,2
Elias George,2
Elizabeth Barnard,2
Elizabeth Turner,2
Emily Hu,2
Emily Smith,4
Emmanuel Hernandez,3
Enrique Rodriguez,4
Eric Anderson,4
Eric Banks,2
Eric Gonzales,2
Eric Gray,2
Eric Hall,3
Eric Kratz,2
Eric Pierce,2
Eric Smith,10
Eric Torres,3
Erickson,2
Erik Anderson,3
Erik Karlsson,2
Ethan Fudge,2
Evan Perez,2
Felipe Hernandez,5
Felix Flores,2
Fernando Rivera,2
Francisco Moreno,3
Frank Luna,2
Frank O'Donnell,2
Frank Sanders,2
Frank Ybarra,2
Frankie Rodriguez,2
Frode Gundersen,2
G. Alloway,2
G. Ross,2
Gabor Kiss,2
Gabriel Acosta,2
Garret Jacobsen,2
Gary Hunter,2
Gary McLean,2
Gary Miller,6
Gary Young,2
Gavin Smith,3
Gerard McNamara,2
Gerald Smith,2
Gerardo Calderon,2
Greg Fields,3
Greg Lewis,2
Greg Simmons,2
Greg Smith,2
Greg White,2
Greg Young,3
Guillermo Estrada,2
Hammond,3
Heikki Laakso,2
Helen Hughes,2
Helgi Jónsson,2
Henry Garcia,2
Henry Hernandez,2
Hieu Le,2
Hitoshi Nakamura,2
Hung,2
Hunter Casey,2
Hunter Henderson,2
Hunter Wilson,4
Ibrahim,2
Igor Zhuk,2
Inna Filimonova,2
Iraida Garcia,2
Isaac Robles,3
Isaac Salinas,2
J. Acevedo,2
J. Cooper,5
J. Davis,2
J. Donahue,4
J. Griffin,6
J. Miller,18
J. Smith,16
J. Thompson,8
Jace Phillips,2
Jack Davis,4
Jack Harvey,2
Jack Taylor,6
Jack Young,5
Jacob Atkinson,2
Jacob Hughes,3
Jacob Hurley,2
Jacob Manley,2
Jacob McBride,2
Jacob Noble,2
Jacob Winstead,2
Jacob Stone,2
Jake Johnson,8
Jake Simpson,3
Jake Williams,6
James Chapman,3
James Dunn,3
James Edwards,3
James Ellis,4
James Grant,3
James Henderson,4
James Lee,5
James MacDonald,2
James Miller,4
James Perry,5
James Ray,3
James Robertson,4
James Stein,2
James Taylor,8
James Williams,17
James Wright,3
Jared Brown,2
Jared Martin,5
Jari Leino,2
Jari Nieminen,2
Jason Byrne,3
Jason Chan,2
Jason Clarke,4
Jason Cook,4
Jason Holmes,2
Jason Lopez,3
Jason Schmidt,2
Jason Weaver,2
Javier de la Torre,2
Javier Garcia,10
Jay Smith,2
Jean-François Caron,3
Jeff Carr,3
Jeff Johnston,3
Jeff Phillips,2
Jeffrey Allen,2
Jeffrey Guo,2
Jeffrey Johnson,3
Jenna Hoffman,2
Jennifer De Leon,2
Jennifer Hobbs,2
Jennifer Ray,3
Jennifer Thompson,2
Jeremy Adams,3
Jeremy Hines,2
Jeremy Willis,2
Jesse Woods,2
Jessica Ayala,2
Jessica Brown,5
Jessica Ford,2
Jessica Hill,3
Jessica Jones,2
Jessica Thompson,2
Jesus Hernandez,5
Jesus Morales,5
Jim Taylor,4
Jim Wilson,3
Joanne Barnes,2
Jodie Smith,2
Joe Cunningham,3
Joe Francisco,2
Joe Lewis,2
Joe Vega,4
Joel Bell,3
Joey Reid,2
Johanna Reichel,2
John Crowley,4
John Davis,13
John Gallacher,2
John Jones,5
John Lane,2
John Marsden,2
John Perez,2
John Pollock,2
John Rooney,2
John Santos,3
John Scott,4
John Simpson,2
John Smith,12
John Walker,5
John Welch,2
John Wells,3
Johnpaul Hayes,2
Jon Cole,2
Jonathan Clark,5
Jonathan Davis,3
Jonathan Mills,2
Jonathan Rodgers,3
Jonathan Stewart,4
Jonny Gardner,2
Jordan Gregory,2
Jordan Harris,5
Jordan Holley,2
Jorge Gonzalez,8
Jorge Maldonado,2
Jose Alvarado,4
Jose Gonzalez,6
Jose Perez,7
Jose Rivas,2
Joseph Coogan,2
Joseph Peña,3
Joseph White,2
Josh Banks,2
Josh Brown,12
Josh Bryant,2
Josh Cannon,2
Josh Ellis,3
Josh Edwards,3
Josh Flores,3
Josh King,8
Josh Morris,3
Josh Smith,28
Josh Walker,8
Josh Wallace,2
Joshua Black,2
Joshua Powell,3
Joshua Schwartz,3
Joshua Yu,3
Juan Aguilar,3
Juan Hernandez,15
Julia Moller,2
Julian Diaz,3
Julian Lee,2
Julie Marshall,2
Julio Sanchez,3
Jussi Mustonen,2
Justin Horn,2
Justin Roberts,3
Justin Smith,13
Justin Sorenson,2
Justin Swanson,2
Justin Thacker,2
Justin Watson,3
Justin Wilson,11
K. Irvin,2
K. Jackson,5
Karl Francis,2
Katie Edwards,2
Kayla Anderson,3
Keith Baker,2
Kelly Brown,3
Kelly Smith,4
Kelsey Brown,2
Kenny Ramirez,2
Kevin Gray,2
Kevin Hu,2
Kevin Jager,2
Kevin James,3
Kevin Nguyen,13
Kevin Sampson,2
Kevin Serrano,2
Kevin Smith,33
Kevin Wu,2
Kim Moser,2
Kim Tran,3
Kimberly Einstein,2
Kris Lewis,2
Kyle Alexander,2
Kyle Brown,10
Kyle Evans,4
Kyle Franke,2
Kyle Johnson,9
Kyle Kirby,3
Kyle Miller,7
Kyle Sheridan,2
Kyle Weiss,2
L. Perez,2
Landon Harris,2
Lane,5
Larry Williams,4
Laura Smith,2
Laura Williams,3
Leandro Fernandez,2
Leanne Brown,2
Lee Moran,2
Lewis Hughes,3
Lisa Long,2
Lisa Tran,2
Lisa Wilson,3
Luc Leblanc,2
Luis Munoz,5
Luis Pacheco,2
Luis Ramos,4
Luke Richardson,2
Luke Rogers,3
Luke Wilson,5
M. Ayers,2
M. Galante,2
M. Johnson,18
M. Moore,6
M. Scott,8
M. Smith,18
M. Suzuki,4
M. Walker,6
M. White,6
M. Zarefoss,2
Martin Green,2
Martin Nguyen,3
Minh Duc Nguyen,2
Minh Nguyen,6
Marco Reyes,4
Marcus Hernandez,3
Maria Sanchez,4
Mario Rodriguez,4
Mark Baker,2
Mark Castillo,2
Mark Hartman,2
Mark Plummer,2
Mark Lockwood,2
Mark Taylor,5
Mark Thompson,4
Martin Rodriguez,5
Mason Evans,3
Matt Brown,8
Matt Chapman,2
Matt Golden,2
Matt Harris,3
Matt Knight,3
Matt Morgan,2
Matt Robertson,3
Matt Ward,3
Matthew Bauer,2
Matthew Cruz,3
Matthew Fulton,2
Matthew Hoffman,2
Matthew Jordan,3
Matthew Knight,3
Matthew Martino,3
Matthew Nicholson,2
Matthew Smith,10
Matthew Turner,5
Matti Lahti,2
Mauricio Rodriguez,4
Max Cooper,2
Max Peek,2
Mayra Yanez,2
Melanie Martin,2
Micah Moore,2
Michael Caputo,2
Michael Dean,4
Michael DeStefano,2
Michael Farrell,2
Michael Ferguson,5
Michael Kruger,2
Michael Morris,4
Michael Norwood,3
Michael Rossi,3
Michael Samson,2
Michael Shaw,2
Michael Stanley,4
Michael Vecchio,2
Michael Yu,2
Michelle Lewis,2
Mikhail Levchenko,2
Mark Daniels,2
Melissa Castillo,3
Melissa Garza,2
Michael Fisher,2
Michael McHugh,2
Michael Walker,5
Mike Bailey,2
Mike Conley,2
Mike Cross,2
Mike Ellis,2
Mike Jenkins,4
Mike Jones,17
Mike MacDonald,2
Mike Sanchez,4
Mike Scott,3
Mike Stone,2
Mike Wolfe,2
Mohammed Rahman,2
Mona Smith,2
Morgan,8
Morgan Taylor,2
Morgan Thompson,2
Morgan Turner,4
Natalie Weber,2
Nate Davis,2
Nate Henderson,3
Nathan Alexander,2
Nathan Harris,4
Nathan Henderson,2
Nathan Miller,5
Nathan Martin,4
Nathan Smith,9
Nathan Wilson,3
Nathaniel Baker,3
Nicholas Evans,2
Nicholas Johnson,2
Nicholas Murphy,2
Nick Fisher,2
Nick Murray,2
Nick Wright,3
Nicole Mason,2
Nikita Efimov,2
Noah Anderson,3
Noah Young,2
Noe Garcia,2
Oscar Sandoval,2
Oscar Vasquez,3
Owen Smith,4
Patrick Griffin,2
Patrick McCloskey,2
Patrick Moore,4
Patrick Morrison,2
Patrick Williams,4
Paul Bennett,2
Paul Bryant,2
Paul Jackson,2
Paul MacDonald,2
Paul Williams,3
Paul Walker,2
Paul Wood,3
Paulo Santos,2
Pavel Svoboda,2
Perez,4
Peter Nguyen,7
Petri Leinonen,2
Phillip Kerr,2
Pieter De Waal,2
R. Ando,3
R. Brown,12
R. Clark,10
R. Gillen,2
R. Simon,2
R. Thomas,8
Rachael Johnson,3
Rachel Hughes,3
Rachel Smith,4
Rakesh Kumar,2
Ramon Figueroa,2
Ray Harris,2
Ray Williams,2
Raymond Bell,3
Rebecca Smith,2
Rene Juarez,3
Rich Woods,2
Richard,2
Richard Adams,2
Richard Flores,5
Richard Williams,3
Ricky Ortiz,2
Robert Bennett,2
Robert Doll,2
Robert Hayes,2
Robert Morrison,2
Robert Palmer,2
Robert Ramsey,3
Robert Scott,3
Robert Simmons,2
Robert Young,4
Robin Riley,2
Roger Davis,5
Roger Eriksson,2
Rogers,7
Roman Gavrilov,2
Roman Kuznetsov,4
Ruben Hernandez,3
Russell Edwards,2
Russell Taylor,4
Ryan Allen,2
Ryan Brown,3
Ryan Green,2
Ryan Hughes,5
Ryan Jones,10
Ryan Kennedy,3
Ryan King,8
Ryan Miller,6
Ryan Preston,3
Ryan Stephenson,2
Ryan Strange,2
Ryan Thompson,4
Ryan Webb,3
Ryan Williams,5
S. Cook,4
S. Fitzgerald,2
S. Hanley,2
S. Johnson,14
S. Keen,2
S. Murphy,3
S. Parks,2
S. Smith,5
Sam Cox,3
Sam Parker,3
Samantha Cox,2
Samuel Smith,3
Sandy Lee,2
Sandra Torres,2
Sara King,2
Sarah Brenner,2
Sarah Lewis,3
Sarah Skinner,3
Sarah Vance,2
Sarah White,2
Scott Rowe,2
Sean Burke,2
Sean Green,5
Sean Miller,2
Sean Simpson,2
Sergey Biryukov,3
Sergio Rodriguez,6
Sergio Torres,4
Seth Johnson,5
Seung Lee,2
Shannon Jacobsen,2
Sharon Holmes,2
Shawn Brooks,2
Shawn Murphy,2
Shay Ward,2
Shelby Jones,3
Shelly Stewart,2
Stephanie Bennett,2
Stephen Anderson,2
Stephen White,2
Steve Gardner,3
Steve Johnson,7
Steve Knight,2
Steve Miller,3
Steve Snyder,3
Steven Rice,2
Steven Short,2
Steven Williams,3
Susan Johnson,2
Suzanne Smith,4
T. An,2
Terry Baldwin,2
Terry Smith,5
Thanh Tam Nguyen,2
Thomas Adams,3
Thomas Miller,5
Thomas Wang,2
Tim Gale,2
Tim Krause,2
Tim O'Brien,2
Tim Parker,4
Tim Taylor,6
Timothy Brown,3
Tina Michaud,2
Tom Bishop,2
Tom Cunningham,2
Tom Davis,3
Tom Gee,2
Tom Martin,3
Tom Miller,3
Tom Ross,2
Tomas Novak,2
Tony Le,3
Tracy Brown,3
Tracy Johnson,5
Tracy Jones,3
Travis Webb,2
Trevor Gilbert,2
Trevor Walker,2
Troy Robinson,2
Tu Le,2
Tyler Collins,3
Tyler Copeland,2
Tyson Hubbard,2
Tyler Jackson,3
Tyler Mann,3
V. Harrelson,2
Valerie Sanchez,3
Victor Castro,3
Vitaliy Savin,2
Viktor Kurbatov,2
Vincent Brown,2
Vladislav Kravchenko,2
W. Aller,2
W. Stewart,5
Wesley Williams,4
Will Barnett,3
William Adams,3
William Andrews,4
William Brown,8
William Davis,4
William Jackson,4
William Jones,7
William Manning,2
William Newton,2
William Payne,2
William Phillips,2
William Watts,3
Xavier Johnson,2
Zach Flowers,2
Zach Morrow,3
Zach Wilson,2
Zachary Nelson,2
Zoltan Horvath,2
