Name,WeightClassKg,Division,Best3SquatKg,Best3BenchKg,Best3DeadliftKg,TotalKg,Sex,Event,Equipment,Place
Danny Barleen,56,M-M1a,160,115,195,470,M,SBD,Single-ply,1
Freddie Higgins,56,M-M1b,152.5,107.5,170,430,M,SBD,Single-ply,1
Alex Galant,56,M-M2a,150,77.5,170,397.5,M,SBD,Single-ply,1
John Corsello,60,M-M1a,162.5,132.5,182.5,477.5,M,SBD,Single-ply,1
Ira Rosen,60,M-M2a,185,95,200,480,M,SBD,Single-ply,1
Richard Del Gallo,60,M-M2a,165,97.5,177.5,440,M,SBD,Single-ply,2
Homi Shivaie,60,M-M2a,160,95,185,440,M,SBD,Single-ply,3
D. Holzbauer,60,M-M2a,145,100,177.5,422.5,M,SBD,Single-ply,4
Michael Blaize,60,M-M2a,130,62.5,152.5,345,M,SBD,Single-ply,5
Iain Burgess,60,M-M2b,140,95,165,400,M,SBD,Single-ply,1
T. Bishop,60,M-M3a,135,77.5,170,382.5,M,SBD,Single-ply,1
Lloyd Weinstein,67.5,M-M1a,240,145,247.5,632.5,M,SBD,Single-ply,1
G. Campbell,67.5,M-M1a,165,107.5,197.5,470,M,SBD,Single-ply,2
Arval Bridges,67.5,M-M1b,222.5,167.5,230,620,M,SBD,Single-ply,1
Jules Pellegrino,67.5,M-M2b,182.5,125,165,472.5,M,SBD,Single-ply,1
Ivan Zwick,67.5,M-M3a,25,117.5,25,167.5,M,SBD,Single-ply,1
Robert Cortes,67.5,M-M3b,170,117.5,217.5,505,M,SBD,Single-ply,1
Dillion Maier,67.5,M-M3b,132.5,82.5,190,405,M,SBD,Single-ply,2
Alan Cayer,75,M-M1a,247.5,165,277.5,690,M,SBD,Single-ply,1
Greg Guthrie,75,M-M1a,217.5,145,250,612.5,M,SBD,Single-ply,2
Mike Roy,75,M-M1b,275,157.5,237.5,670,M,SBD,Single-ply,1
D. Miller,75,M-M1b,180,150,200,530,M,SBD,Single-ply,2
Joseph Marksteiner,75,M-M1b,200,107.5,190,497.5,M,SBD,Single-ply,3
Gary Reale,75,M-M1b,145,135,175,455,M,SBD,Single-ply,4
Larry Miller,75,M-M1b,85,218,85,388,M,SBD,Single-ply,5
George Bartotti,75,M-M2a,152.5,130,195,477.5,M,SBD,Single-ply,1
S. Aldvenda,75,M-M2b,225,140,237.5,602.5,M,SBD,Single-ply,1
Bill Scully,82.5,M-M1a,262.5,177.5,267.5,707.5,M,SBD,Single-ply,1
Larry Maile,82.5,M-M1a,265,187.5,250,702.5,M,SBD,Single-ply,2
D. Wigley,82.5,M-M1a,267.5,162.5,257.5,687.5,M,SBD,Single-ply,3
Greg Zangl,82.5,M-M1a,200,195,260,655,M,SBD,Single-ply,4
A. Ezzell,82.5,M-M1a,220,147.5,260,627.5,M,SBD,Single-ply,5
Bob Fabiano,82.5,M-M1a,215,160,235,610,M,SBD,Single-ply,6
Gary Beck,82.5,M-M1b,227.5,150,272.5,650,M,SBD,Single-ply,1
L. Everett,82.5,M-M1b,217.5,135,250,602.5,M,SBD,Single-ply,2
Art Menton,82.5,M-M2a,222.5,147.5,217.5,587.5,M,SBD,Single-ply,1
J. Would,82.5,M-M2a,205,130,220,555,M,SBD,Single-ply,2
Joe Rizza,82.5,M-M2a,227.5,95,210,532.5,M,SBD,Single-ply,3
L. Emerson,82.5,M-M2a,175,120,235,530,M,SBD,Single-ply,4
Jim Klostergard,82.5,M-M2a,160,185,172.5,517.5,M,SBD,Single-ply,5
Richard Goldsmith,82.5,M-M2a,175,155,172.5,502.5,M,SBD,Single-ply,6
Mike Rosenwald,82.5,M-M2a,165,110,195,470,M,SBD,Single-ply,7
James Krueger,82.5,M-M2b,207.5,107.5,195,510,M,SBD,Single-ply,1
Richard Schuller,82.5,M-M2b,172.5,115,195,482.5,M,SBD,Single-ply,2
Rudy Lozano,82.5,M-M3a,180,140,210,530,M,SBD,Single-ply,1
R. Ringewood,82.5,M-M3a,195,97.5,215,507.5,M,SBD,Single-ply,2
Victor Bazzone,82.5,M-M3a,155,117.5,212.5,485,M,SBD,Single-ply,3
Joe McDermott,82.5,M-M3a,70,152.5,70,292.5,M,SBD,Single-ply,4
B. Cox,82.5,M-M4b,80,52.5,130,262.5,M,SBD,Single-ply,1
Gary Ferstler,90,M-M1a,282.5,155,310,747.5,M,SBD,Single-ply,1
Mike Lohman,90,M-M1a,280,160,282.5,722.5,M,SBD,Single-ply,2
R. Jones,90,M-M1a,210,165,240,615,M,SBD,Single-ply,3
M. Liciardello,90,M-M1a,220,135,250,605,M,SBD,Single-ply,4
David Bertier,90,M-M1a,155,137.5,227.5,520,M,SBD,Single-ply,5
William Kellett,90,M-M1a,155,135,192.5,482.5,M,SBD,Single-ply,6
Larry Traub,90,M-M1b,275,170,307.5,752.5,M,SBD,Single-ply,1
Aaron Byas,90,M-M1b,250,162.5,300,712.5,M,SBD,Single-ply,2
R. Pye,90,M-M1b,237.5,152.5,255,645,M,SBD,Single-ply,3
Phillip Accordino,90,M-M1b,220,162.5,235,617.5,M,SBD,Single-ply,4
A. Cristo,90,M-M2a,217.5,142.5,252.5,612.5,M,SBD,Single-ply,1
David Mansfield,90,M-M2a,250,120,240,610,M,SBD,Single-ply,2
A. Bolden,90,M-M2a,197.5,127.5,210,535,M,SBD,Single-ply,3
M. Mooney,90,M-M2a,182.5,100,187.5,470,M,SBD,Single-ply,4
B. Bower,90,M-M2b,262.5,155,232.5,650,M,SBD,Single-ply,1
T. Haggenmiller,90,M-M2b,197.5,150,235,582.5,M,SBD,Single-ply,2
D. Johnson,90,M-M2b,175,122.5,277.5,575,M,SBD,Single-ply,3
D. Yanoscik,90,M-M2b,192.5,132.5,195,520,M,SBD,Single-ply,4
Jim Waters,90,M-M2b,170,107.5,215,492.5,M,SBD,Single-ply,5
John Herbein,90,M-M3a,190,120,237.5,547.5,M,SBD,Single-ply,1
B. Fleischer,90,M-M3a,165,125,192.5,482.5,M,SBD,Single-ply,2
B. Groves,90,M-M3a,185,95,170,450,M,SBD,Single-ply,3
Charles Lee,90,M-M4b,115,105,152.5,372.5,M,SBD,Single-ply,1
Scott Roberts,100,M-M1a,310,187.5,287.5,785,M,SBD,Single-ply,1
M. Terman,100,M-M1a,262.5,150,307.5,720,M,SBD,Single-ply,2
Michael DelSignore,100,M-M1a,272.5,187.5,240,700,M,SBD,Single-ply,3
Bill Ellis,100,M-M1a,245,170,220,635,M,SBD,Single-ply,4
Steve Heyl,100,M-M1a,220,160,232.5,612.5,M,SBD,Single-ply,5
S. Rosenberg,100,M-M1b,240,150,245,635,M,SBD,Single-ply,1
John Valpatic,100,M-M1b,227.5,140,227.5,595,M,SBD,Single-ply,2
David Clark,100,M-M2a,250,172.5,292.5,715,M,SBD,Single-ply,1
Mike Nichols,100,M-M2a,167.5,112.5,222.5,502.5,M,SBD,Single-ply,2
Robert Morton,100,M-M2a,185,117.5,192.5,495,M,SBD,Single-ply,3
Doug Dienelt,100,M-M2b,262.5,175,287.5,725,M,SBD,Single-ply,1
Robert Rood,100,M-M2b,240,162.5,240,642.5,M,SBD,Single-ply,2
Al King,100,M-M2b,217.5,142.5,262.5,622.5,M,SBD,Single-ply,3
S. Chantis,100,M-M3a,195,130,227.5,552.5,M,SBD,Single-ply,1
R. Anselm,100,M-M3a,175,125,192.5,492.5,M,SBD,Single-ply,2
Shawn Cain,110,M-M1a,290,210,330,830,M,SBD,Single-ply,1
Rick Kolbeck,110,M-M1a,270,175,260,705,M,SBD,Single-ply,2
Nolan Crabbe,110,M-M1a,247.5,200,250,697.5,M,SBD,Single-ply,3
Edward Zimmerman,110,M-M1a,267.5,150,250,667.5,M,SBD,Single-ply,4
B. Phillips,110,M-M1b,275,175,260,710,M,SBD,Single-ply,1
Ron Burnett,110,M-M2a,210,150,250,610,M,SBD,Single-ply,1
J. Fyda,110,M-M2a,187.5,125,200,512.5,M,SBD,Single-ply,2
K. Lanci,110,M-M2a,62.5,70,202.5,335,M,SBD,Single-ply,3
Will Morris,110,M-M2b,250,182.5,250,682.5,M,SBD,Single-ply,1
Robert Grisham,110,M-M3a,235,132.5,210,577.5,M,SBD,Single-ply,1
M. Saunders,125,M-M1a,290,192.5,275,757.5,M,SBD,Single-ply,1
Richard Brose,125,M-M1a,282.5,175,272.5,730,M,SBD,Single-ply,2
Tom Weeks,125,M-M1b,307.5,200,317.5,825,M,SBD,Single-ply,1
Irv Obermark,125,M-M2b,262.5,165,275,702.5,M,SBD,Single-ply,1
Hal Hudson,125,M-M3a,177.5,112.5,215,505,M,SBD,Single-ply,1
B. Lee,125+,M-M1a,355,232.5,297.5,885,M,SBD,Single-ply,1
A. Phillips,125+,M-M1a,142.5,115,137.5,395,M,SBD,Single-ply,2
Brett McCune,125+,M-M2a,250,190,285,725,M,SBD,Single-ply,1
Charles Clonce,125+,M-M2b,272.5,147.5,220,640,M,SBD,Single-ply,1
