Division,WeightClassKg,Place,Name,Team,BodyweightKg,Best3SquatKg,Best3BenchKg,Best3DeadliftKg,TotalKg,Equipment,Event,Sex
Boys,51.71,1,Jordan Tyler,Pattonville Prairiland,50.53,142.88,72.57,147.42,362.87,Single-ply,SBD,M
Boys,55.79,2,Edward Green,Daingerfield,51.94,124.74,70.31,138.35,333.39,Single-ply,SBD,M
Boys,51.71,3,Danny Perez,Detroit,49.44,111.13,56.7,136.08,303.91,Single-ply,SBD,M
Boys,55.79,1,Juan Leija,Bogata Rivercrest,53.98,163.29,99.79,170.1,433.18,Single-ply,SBD,M
Boys,55.79,2,Ryan McCoin,Paris Chisum,55.25,129.27,61.23,136.08,326.59,Single-ply,SBD,M
Boys,55.79,3,Gabriel Mariscol,Pittsburg,55.79,113.4,83.91,127.01,324.32,Single-ply,SBD,M
Boys,55.79,4,Cody Duckworth,Detroit,53.34,97.52,47.63,90.72,235.87,Single-ply,SBD,M
Boys,59.87,5,Luke Hill,Mount Pleasant,56.02,106.59,,,106.59,Single-ply,S,M
Boys,59.87,1,Arturo Peralta,Pattonville Prairiland,59.6,149.69,90.72,181.44,421.84,Single-ply,SBD,M
Boys,59.87,2,Keith Hopkins,Daingerfield,57.79,154.22,74.84,163.29,392.36,Single-ply,SBD,M
Boys,59.87,3,Ricky Reed,Daingerfield,59.06,147.42,83.91,149.69,381.02,Single-ply,SBD,M
Boys,59.87,4,Dylan Winchester,Pittsburg,59.42,138.35,68.04,122.47,328.85,Single-ply,SBD,M
Boys,67.13,1,Terrance Walker,Mount Pleasant,63.41,197.31,111.13,185.97,494.42,Single-ply,SBD,M
Boys,74.84,2,Kannon Carter,Mount Pleasant,67.36,183.7,111.13,183.7,478.54,Single-ply,SBD,M
Boys,67.13,3,Fillip Gann,Paris Chisum,63.96,181.44,97.52,156.49,435.45,Single-ply,SBD,M
Boys,67.13,4,Corwin Louis,Honey Grove,65.77,176.9,83.91,149.69,410.5,Single-ply,SBD,M
Boys,67.13,5,Travis Bryant,Detroit,63.14,136.08,65.77,133.81,335.66,Single-ply,SBD,M
Boys,74.84,6,Devonya Bell,Detroit,67.31,124.74,72.57,136.08,333.39,Single-ply,SBD,M
Boys,67.13,7,Lance Collins,Honey Grove,61.96,127.01,63.5,108.86,299.37,Single-ply,SBD,M
Boys,67.13,8,Brian Graham,Pattonville Prairiland,66.95,108.86,56.7,131.54,297.1,Single-ply,SBD,M
Boys,67.13,9,Clint Elrod,Detroit,60.87,111.13,63.5,120.2,294.84,Single-ply,SBD,M
Boys,67.13,10,Scott Davis,Detroit,61.46,106.59,52.16,120.2,278.96,Single-ply,SBD,M
Boys,74.84,1,Garret Anderson,Bogata Rivercrest,74.84,215.46,142.88,222.26,580.6,Single-ply,SBD,M
Boys,74.84,2,Brad Gunn,Paris Chisum,69.4,197.31,111.13,185.97,494.42,Single-ply,SBD,M
Boys,74.84,3,Garrett Oats,Honey Grove,73.75,149.69,106.59,206.38,462.66,Single-ply,SBD,M
Boys,74.84,4,Mason Justiss,Paris Chisum,74.21,185.97,117.93,156.49,460.4,Single-ply,SBD,M
Boys,82.1,5,Desmond Heath,Daingerfield,75.07,170.1,108.86,147.42,426.38,Single-ply,SBD,M
Boys,74.84,6,Michael Trumble,Pattonville Prairiland,68.95,124.74,79.38,161.03,365.14,Single-ply,SBD,M
Boys,82.1,7,Shane Autry,Detroit,75.07,142.88,74.84,147.42,365.14,Single-ply,SBD,M
Boys,74.84,8,Dow Henderson,Pattonville Prairiland,72.39,136.08,70.31,136.08,342.46,Single-ply,SBD,M
Boys,74.84,9,Tyler Plemons,Pattonville Prairiland,67.95,102.06,77.11,142.88,322.05,Single-ply,SBD,M
Boys,82.1,10,Jason Echeverra,Honey Grove,75.07,108.86,81.65,83.91,274.42,Single-ply,SBD,M
Boys,82.1,1,Stephen Julian,Mount Pleasant,80.74,226.8,156.49,226.8,610.08,Single-ply,SBD,M
Boys,82.1,2,Brandon Armstrong,Pittsburg,78.93,229.06,120.2,199.58,548.85,Single-ply,SBD,M
Boys,82.1,3,LaMarce Lafayette,Daingerfield,77.29,206.38,122.47,183.7,512.56,Single-ply,SBD,M
Boys,82.1,4,Jarred Williams,Daingerfield,79.02,188.24,113.4,188.24,489.88,Single-ply,SBD,M
Boys,82.1,5,Jacob Peters,Daingerfield,79.56,181.44,113.4,190.51,485.34,Single-ply,SBD,M
Boys,82.1,6,Todarius Gholston,Daingerfield,76.75,179.17,92.99,156.49,428.64,Single-ply,SBD,M
Boys,82.1,7,Dylan Stringer,Detroit,80.2,154.22,79.38,147.42,381.02,Single-ply,SBD,M
Boys,89.81,1,Aaron Arnold,Paris Chisum,87.27,204.12,106.59,226.8,537.51,Single-ply,SBD,M
Boys,89.81,2,Ed Ordaz,Mount Pleasant,85.91,192.78,108.86,188.24,489.88,Single-ply,SBD,M
Boys,89.81,3,Kalyan Miller,Paris Chisum,87,188.24,90.72,174.63,453.59,Single-ply,SBD,M
Boys,89.81,4,Aaron Cunningham,Pattonville Prairiland,86.36,151.95,102.06,183.7,437.72,Single-ply,SBD,M
Boys,89.81,5,Prestron Kennedy,Pittsburg,84.37,170.1,83.91,172.37,426.38,Single-ply,SBD,M
Boys,89.81,6,Jon Boehlar,Paris Chisum,86.64,170.1,88.45,149.69,408.23,Single-ply,SBD,M
Boys,89.81,7,Josh Wilson,Pattonville Prairiland,85.73,108.86,52.16,136.08,297.1,Single-ply,SBD,M
Boys,89.81,8,Shane Swimm,Honey Grove,82.83,77.11,77.11,131.54,285.76,Single-ply,SBD,M
Boys,99.79,1,Bubba Garcia,Pittsburg,92.99,240.4,136.08,195.04,571.53,Single-ply,SBD,M
Boys,99.79,2,Kyle Hasley,Paris Chisum,97.16,217.72,129.27,217.72,564.72,Single-ply,SBD,M
Boys,99.79,3,Tyler Lint,Pittsburg,98.43,226.8,133.81,170.1,530.7,Single-ply,SBD,M
Boys,99.79,4,Jake Owens,Pattonville Prairiland,99.34,188.24,111.13,206.38,505.76,Single-ply,SBD,M
Boys,99.79,5,Keaton Smith,Daingerfield,99.7,183.7,106.59,181.44,471.74,Single-ply,SBD,M
Boys,99.79,6,Chris Robinson,Daingerfield,92.35,154.22,104.33,181.44,439.98,Single-ply,SBD,M
Boys,99.79,7,Patrick Ortega,Honey Grove,95.44,174.63,108.86,151.95,435.45,Single-ply,SBD,M
Boys,99.79,8,Ty Lomas,Daingerfield,92.26,181.44,92.99,158.76,433.18,Single-ply,SBD,M
Boys,99.79,9,John Smith #9,Daingerfield,93.53,145.15,92.99,163.29,401.43,Single-ply,SBD,M
Boys,99.79,DQ,Chris Turner,Mount Pleasant,91.53,,,,,Single-ply,SBD,M
Boys,109.77,1,Roman Miller,Mount Pleasant,106.96,210.92,124.74,215.46,551.11,Single-ply,SBD,M
Boys,109.77,2,Donald Bryant,Daingerfield,106.14,172.37,106.59,172.37,451.32,Single-ply,SBD,M
Boys,109.77,3,Reggie Schults,Pittsburg,107.5,165.56,97.52,145.15,408.23,Single-ply,SBD,M
Boys,109.77,4,Billy Baldwin,Pittsburg,104.33,170.1,83.91,149.69,403.7,Single-ply,SBD,M
Boys,109.77,5,Jaime Humphrey,Pattonville Prairiland,109.04,149.69,79.38,138.35,367.41,Single-ply,SBD,M
Boys,124.74,1,Vince Davis,Detroit,116.3,222.26,122.47,217.72,562.45,Single-ply,SBD,M
Boys,124.74,2,Lane McKenzie,Paris Chisum,115.67,213.19,138.35,176.9,528.44,Single-ply,SBD,M
Boys,124.74,3,Jeremiah Smith,Pittsburg,123.83,183.7,113.4,183.7,480.81,Single-ply,SBD,M
Boys,124.74,4,Aaron Gonzales,Pittsburg,110.68,176.9,102.06,183.7,462.66,Single-ply,SBD,M
Boys,124.74,5,Jesse Hanson,Daingerfield,124.28,181.44,108.86,165.56,455.86,Single-ply,SBD,M
Boys,124.74,6,Shayuion Hatten,Daingerfield,114.4,161.03,83.91,174.63,419.57,Single-ply,SBD,M
Boys,124.74+,1,Harry White,Pittsburg,159.21,365.14,158.76,249.48,773.37,Single-ply,SBD,M
Boys,124.74+,2,Matt Kirkland,Pittsburg,132,340.19,172.37,249.48,762.04,Single-ply,SBD,M
Boys,124.74+,3,Jalen Stephens,Mount Pleasant,131.72,283.5,170.1,226.8,680.39,Single-ply,SBD,M
Boys,124.74+,4,Brandon Gholston,Daingerfield,127.46,231.33,140.61,188.24,560.19,Single-ply,SBD,M
Boys,124.74+,5,Tre Goodwin,Honey Grove,127.46,219.99,120.2,215.46,555.65,Single-ply,SBD,M
Boys,124.74+,6,Willie McGill,Mount Pleasant,152.95,183.7,104.33,183.7,471.74,Single-ply,SBD,M
Boys,124.74+,7,Josh Green,Pattonville Prairiland,155.22,156.49,113.4,149.69,419.57,Single-ply,SBD,M
