Division,WeightClassKg,Place,Name,Team,BodyweightKg,Best3SquatKg,Best3BenchKg,Best3DeadliftKg,TotalKg,Equipment,Event,Sex
Boys,51.71,1,Jonathon Cardenas,Freeport Brazosport,50.35,104.33,72.57,147.42,324.32,Single-ply,SBD,M
Boys,51.71,2,Eddie Taylor,La Porte,51.26,115.67,74.84,131.54,322.05,Single-ply,SBD,M
Boys,51.71,3,Hunter Gartman,Clute Brazoswood,48.99,102.06,54.43,104.33,260.82,Single-ply,SBD,M
Boys,51.71,4,Ricardo Gallardo,Freeport Brazosport,51.26,77.11,49.9,113.4,240.4,Single-ply,SBD,M
Boys,51.71,5,Jay Bradley,La Marque,36.74,56.7,31.75,77.11,165.56,Single-ply,SBD,M
Boys,55.79,1,Cameron Guillen,Clute Brazoswood,55.34,161.03,86.18,154.22,401.43,Single-ply,SBD,M
Boys,55.79,2,Blake Gamez,La Porte,54.43,147.42,92.99,154.22,394.63,Single-ply,SBD,M
Boys,55.79,3,Taylor Riley,La Porte,54.43,147.42,86.18,154.22,387.82,Single-ply,SBD,M
Boys,55.79,4,Adrian Martinez,Texas City,55.79,111.13,68.04,129.27,308.44,Single-ply,SBD,M
Boys,55.79,5,Jimmy Coleman,La Marque,54.43,120.2,63.5,104.33,288.03,Single-ply,SBD,M
Boys,59.87,1,Jakob Rios,Clute Brazoswood,58.97,170.1,102.06,172.37,444.52,Single-ply,SBD,M
Boys,59.87,2,Alex Amador,Freeport Brazosport,58.06,145.15,86.18,165.56,396.89,Single-ply,SBD,M
Boys,59.87,3,Caleb Ross,Clute Brazoswood,59.42,142.88,83.91,156.49,383.29,Single-ply,SBD,M
Boys,59.87,4,Tyvarian Lane,Stafford,59.87,145.15,95.25,129.27,369.68,Single-ply,SBD,M
Boys,59.87,5,Dylan Billiot,La Marque,59.87,136.08,83.91,147.42,367.41,Single-ply,SBD,M
Boys,59.87,6,Kris Lopez,Freeport Brazosport,58.97,108.86,81.65,140.61,331.12,Single-ply,SBD,M
Boys,59.87,7,Zac Caminade,Santa Fe,57.15,95.25,61.23,129.27,285.76,Single-ply,SBD,M
Boys,67.13,1,Gerald Johnson,La Marque,65.32,181.44,99.79,192.78,474,Single-ply,SBD,M
Boys,67.13,2,Bryston Braziel,Stafford,66.68,185.97,97.52,170.1,453.59,Single-ply,SBD,M
Boys,67.13,3,Jordan Aguilar,Clute Brazoswood,67.13,183.7,97.52,158.76,439.98,Single-ply,SBD,M
Boys,67.13,4,Marshall Surovik,Texas City,67.13,154.22,99.79,179.17,433.18,Single-ply,SBD,M
Boys,67.13,5,Brady Abowd,Pearland,63.5,165.56,97.52,163.29,426.38,Single-ply,SBD,M
Boys,67.13,6,Dequan Jones,La Marque,61.69,163.29,102.06,154.22,419.57,Single-ply,SBD,M
Boys,67.13,7,Josh Rodriguez,Clute Brazoswood,64.41,156.49,79.38,170.1,405.97,Single-ply,SBD,M
Boys,67.13,8,Jarvis Roberson,Clute Brazoswood,63.5,142.88,97.52,163.29,403.7,Single-ply,SBD,M
Boys,67.13,9,Brandyn Ginyard,Pasadena Dobie,64.41,142.88,92.99,163.29,399.16,Single-ply,SBD,M
Boys,67.13,10,Michael Parker,Hitchcock,66.68,145.15,77.11,154.22,376.48,Single-ply,SBD,M
Boys,67.13,11,Eleazar Pena,Hitchcock,67.13,142.88,81.65,147.42,371.95,Single-ply,SBD,M
Boys,67.13,12,Corey Holmes,La Marque,66.22,131.54,63.5,136.08,331.12,Single-ply,SBD,M
Boys,67.13,DQ,Seth Bethea,Santa Fe,67.13,,,,,Single-ply,SBD,M
Boys,74.84,1,Alan Cooper,La Marque,74.39,185.97,113.4,208.65,508.02,Single-ply,SBD,M
Boys,74.84,2,Raine Spafford,Pearland,73.94,179.17,131.54,195.04,505.76,Single-ply,SBD,M
Boys,74.84,3,Drew Lowery,Clute Brazoswood,74.39,176.9,106.59,195.04,478.54,Single-ply,SBD,M
Boys,74.84,4,Ashanti Walker,Texas City,74.84,185.97,111.13,181.44,478.54,Single-ply,SBD,M
Boys,74.84,5,Nefi Hernandez,Texas City,70.31,190.51,113.4,165.56,469.47,Single-ply,SBD,M
Boys,74.84,6,Kevin Busby,La Porte,73.03,181.44,97.52,181.44,460.4,Single-ply,SBD,M
Boys,74.84,7,Josh McKinney,Santa Fe,74.39,154.22,113.4,190.51,458.13,Single-ply,SBD,M
Boys,74.84,8,LaDarrian Ellis-Jones,La Marque,74.84,172.37,104.33,181.44,458.13,Single-ply,SBD,M
Boys,74.84,9,Lane Pfeiffer,La Porte,71.67,158.76,111.13,181.44,451.32,Single-ply,SBD,M
Boys,74.84,10,Nick Bell,Clute Brazoswood,74.84,163.29,111.13,167.83,442.25,Single-ply,SBD,M
Boys,74.84,11,Brandon Wade,La Marque,74.84,156.49,113.4,158.76,428.64,Single-ply,SBD,M
Boys,74.84,12,Malik Campbell,Freeport Brazosport,72.57,170.1,97.52,158.76,426.38,Single-ply,SBD,M
Boys,74.84,13,Jared Hernandez,Texas City,74.84,158.76,83.91,179.17,421.84,Single-ply,SBD,M
Boys,74.84,14,Sean Castillo,La Porte,73.48,165.56,92.99,136.08,394.63,Single-ply,SBD,M
Boys,74.84,15,Aaron Jordan,Pasadena Dobie,70.76,138.35,83.91,138.35,360.61,Single-ply,SBD,M
Boys,74.84,16,Kolbi Foster,Clute Brazoswood,74.84,145.15,68.04,142.88,356.07,Single-ply,SBD,M
Boys,74.84,17,Zac Fisher,Texas City,72.57,113.4,79.38,142.88,335.66,Single-ply,SBD,M
Boys,74.84,18,John Wilson,Santa Fe,71.21,99.79,70.31,104.33,274.42,Single-ply,SBD,M
Boys,74.84,DQ,Felipe Montemayor,Santa Fe,73.94,120.2,,142.88,,Single-ply,SBD,M
Boys,74.84,DQ,Justice Reece,Pearland,74.84,,102.06,190.51,,Single-ply,SBD,M
Boys,74.84,DQ,Jaychi Thomas,Freeport Brazosport,74.39,,,,,Single-ply,SBD,M
Boys,74.84,DQ,Juan Isais,Freeport Brazosport,74.39,,,,,Single-ply,SBD,M
Boys,82.1,1,John Saenz,Clute Brazoswood,80.29,247.21,131.54,208.65,587.4,Single-ply,SBD,M
Boys,82.1,2,Tj Combs,Hitchcock,81.65,213.19,129.27,233.6,576.06,Single-ply,SBD,M
Boys,82.1,3,Nathan Lewis,Freeport Brazosport,81.19,172.37,104.33,219.99,496.68,Single-ply,SBD,M
Boys,82.1,4,Ralph Anderson,Texas City,81.65,181.44,113.4,199.58,494.42,Single-ply,SBD,M
Boys,82.1,5,Reese Thompson,La Porte,81.19,170.1,124.74,195.04,489.88,Single-ply,SBD,M
Boys,82.1,6,Zech Bowen,La Porte,81.65,195.04,108.86,181.44,485.34,Single-ply,SBD,M
Boys,82.1,7,Gabe Benitez,Pearland,80.29,179.17,106.59,195.04,480.81,Single-ply,SBD,M
Boys,82.1,8,Justin Britton,La Marque,81.65,163.29,124.74,172.37,460.4,Single-ply,SBD,M
Boys,82.1,9,Matthew Richardson,Hitchcock,80.74,158.76,108.86,188.24,455.86,Single-ply,SBD,M
Boys,82.1,10,James Ash,Clute Brazoswood,81.19,161.03,88.45,170.1,419.57,Single-ply,SBD,M
Boys,82.1,11,Rowdy Brakhage,Santa Fe,75.75,102.06,79.38,140.61,322.05,Single-ply,SBD,M
Boys,82.1,12,Stephen Blevins,Texas City,76.66,142.88,,,142.88,Single-ply,S,M
Boys,89.81,1,Eric Hembling,Clute Brazoswood,84.37,204.12,117.93,231.33,553.38,Single-ply,SBD,M
Boys,89.81,2,Obi Neweke,Pearland,86.18,215.46,115.67,197.31,528.44,Single-ply,SBD,M
Boys,89.81,3,Aaron Sollock,Clute Brazoswood,84.37,197.31,136.08,181.44,514.83,Single-ply,SBD,M
Boys,89.81,4,James Jacobs,La Porte,88,195.04,117.93,201.85,514.83,Single-ply,SBD,M
Boys,89.81,5,Zane Gonzalez,Pearland,86.64,192.78,122.47,195.04,510.29,Single-ply,SBD,M
Boys,89.81,6,Logan Holt,Hitchcock,84.37,195.04,111.13,192.78,498.95,Single-ply,SBD,M
Boys,89.81,7,Keion Patterson,Pasadena Dobie,84.37,163.29,124.74,188.24,476.27,Single-ply,SBD,M
Boys,89.81,8,Daniel Martinez,Freeport Brazosport,88.9,190.51,102.06,170.1,462.66,Single-ply,SBD,M
Boys,89.81,9,David Eudoxie,Clute Brazoswood,88.9,179.17,106.59,172.37,458.13,Single-ply,SBD,M
Boys,89.81,10,Brent Smith,Hitchcock,88,174.63,83.91,163.29,421.84,Single-ply,SBD,M
Boys,89.81,DQ,Angel Garcia,Pasadena Dobie,83.91,,,,,Single-ply,SBD,M
Boys,89.81,DQ,Angel Guerrero,Pasadena Dobie,85.73,,,,,Single-ply,SBD,M
Boys,99.79,1,Francios Bonilla,Texas City,96.62,240.4,163.29,238.14,641.83,Single-ply,SBD,M
Boys,99.79,2,Stevan Gonzalvez,Clute Brazoswood,99.34,247.21,142.88,215.46,605.55,Single-ply,SBD,M
Boys,99.79,3,D Vonte Hinton,Texas City,94.8,210.92,127.01,219.99,557.92,Single-ply,SBD,M
Boys,99.79,4,Tarik Cooper,Texas City,95.71,183.7,142.88,188.24,514.83,Single-ply,SBD,M
Boys,99.79,5,Elton Woodard,Stafford,96.16,192.78,127.01,195.04,514.83,Single-ply,SBD,M
Boys,99.79,6,Jaron Dykstra,La Porte,92.08,181.44,122.47,204.12,508.02,Single-ply,SBD,M
Boys,99.79,7,Eddie White,Pearland,98.88,179.17,115.67,204.12,498.95,Single-ply,SBD,M
Boys,99.79,8,Jason Herrington,La Porte,92.08,176.9,106.59,188.24,471.74,Single-ply,SBD,M
Boys,99.79,9,Justin Lilley,Pearland,97.07,170.1,92.99,188.24,451.32,Single-ply,SBD,M
Boys,99.79,10,Jesse Castillo,Santa Fe,95.25,161.03,102.06,181.44,444.52,Single-ply,SBD,M
Boys,99.79,11,Nathan Weaver,Clute Brazoswood,93.44,174.63,108.86,158.76,442.25,Single-ply,SBD,M
Boys,99.79,12,Robert Hurta,Freeport Brazosport,92.99,165.56,86.18,174.63,426.38,Single-ply,SBD,M
Boys,99.79,13,Vincent Gutirrez,Pasadena Dobie,94.8,151.95,108.86,161.03,421.84,Single-ply,SBD,M
Boys,99.79,14,Kenneth Cooper,Santa Fe,99.79,136.08,90.72,136.08,362.87,Single-ply,SBD,M
Boys,99.79,15,Tyler Redman,Pasadena Dobie,98.43,102.06,68.04,133.81,303.91,Single-ply,SBD,M
Boys,99.79,DQ,Jayson Kline,La Porte,99.79,,,,,Single-ply,SBD,M
Boys,99.79,DQ,Orlando Logan,Pasadena Dobie,94.8,,,,,Single-ply,SBD,M
Boys,99.79,DQ,Izaah Washington,La Porte,99.79,,,,,Single-ply,SBD,M
Boys,99.79,DQ,Hunter Thiem,Hitchcock,99.79,,,,,Single-ply,SBD,M
Boys,109.77,1,Nestor Mendez,Freeport Brazosport,107.05,244.94,161.03,256.28,662.24,Single-ply,SBD,M
Boys,109.77,2,Jimmy LaFata,Clute Brazoswood,108.86,251.74,165.56,233.6,650.91,Single-ply,SBD,M
Boys,109.77,3,Bryan Herrera,Pearland,107.05,256.28,133.81,229.06,619.15,Single-ply,SBD,M
Boys,109.77,4,Ronnie Fraser,Pearland,106.14,242.67,136.08,226.8,605.55,Single-ply,SBD,M
Boys,109.77,5,Lorenzo Beaza,Texas City,101.6,226.8,142.88,222.26,591.94,Single-ply,SBD,M
Boys,109.77,6,Carlos Alvarez,Hitchcock,105.69,240.4,149.69,192.78,582.87,Single-ply,SBD,M
Boys,109.77,7,Clayton Calhoun,La Porte,108.41,226.8,131.54,215.46,573.79,Single-ply,SBD,M
Boys,109.77,8,Tate Smith,Texas City,100.7,224.53,115.67,226.8,566.99,Single-ply,SBD,M
Boys,109.77,9,Corey Shields,Clute Brazoswood,106.59,226.8,117.93,210.92,555.65,Single-ply,SBD,M
Boys,109.77,10,Kurtis Williams,Clute Brazoswood,108.86,206.38,129.27,215.46,551.11,Single-ply,SBD,M
Boys,109.77,11,Anthony Cantu,Pasadena Dobie,104.33,192.78,142.88,183.7,519.36,Single-ply,SBD,M
Boys,109.77,12,Tyler Boudreaux,La Porte,104.33,195.04,127.01,188.24,510.29,Single-ply,SBD,M
Boys,109.77,13,Troy Beckham,Clute Brazoswood,107.05,201.85,138.35,170.1,510.29,Single-ply,SBD,M
Boys,109.77,14,Sam Spicer,Clute Brazoswood,103.87,167.83,120.2,170.1,458.13,Single-ply,SBD,M
Boys,109.77,15,Josh Reynolds,Pearland,108.86,170.1,97.52,183.7,451.32,Single-ply,SBD,M
Boys,109.77,16,Kyler Gentry,Santa Fe,108.86,158.76,106.59,183.7,449.06,Single-ply,SBD,M
Boys,109.77,17,Santos Lazos,Clute Brazoswood,108.86,122.47,74.84,147.42,344.73,Single-ply,SBD,M
Boys,109.77,18,Caleb James,Clute Brazoswood,107.05,183.7,,,183.7,Single-ply,S,M
Boys,109.77,DQ,Arthur Rosemond,La Marque,109.77,,,,,Single-ply,S,M
Boys,124.74,1,Chris Gomez,Freeport Brazosport,115.21,272.16,174.63,226.8,673.58,Single-ply,SBD,M
Boys,124.74,2,Korey Robinson,Texas City,115.21,265.35,149.69,249.48,664.51,Single-ply,SBD,M
Boys,124.74,3,Denaus Ferguson,La Porte,120.2,272.16,158.76,233.6,664.51,Single-ply,SBD,M
Boys,124.74,4,Nathan Flores,Pasadena Dobie,113.4,213.19,183.7,226.8,623.69,Single-ply,SBD,M
Boys,124.74,5,Keithon Herring,Texas City,123.83,251.74,142.88,208.65,603.28,Single-ply,SBD,M
Boys,124.74,6,Marquez Baker,La Marque,113.4,233.6,117.93,240.4,591.94,Single-ply,SBD,M
Boys,124.74,7,Zach Arias,Pearland,122.02,219.99,147.42,201.85,569.26,Single-ply,SBD,M
Boys,124.74,8,Ramsey Ramirez,Texas City,114.76,215.46,127.01,215.46,557.92,Single-ply,SBD,M
Boys,124.74,9,Chris Mock,Texas City,116.12,215.46,129.27,206.38,551.11,Single-ply,SBD,M
Boys,124.74,10,Aymiel Flemming,La Marque,117.93,192.78,145.15,199.58,537.51,Single-ply,SBD,M
Boys,124.74,11,Victor Guevara,Freeport Brazosport,113.4,210.92,113.4,204.12,528.44,Single-ply,SBD,M
Boys,124.74,12,Josh Uluoacha,Stafford,114.76,208.65,117.93,197.31,523.9,Single-ply,SBD,M
Boys,124.74,13,Gino Cortex,Pearland,122.02,197.31,145.15,179.17,521.63,Single-ply,SBD,M
Boys,124.74,14,Victor Sanchez,Hitchcock,123.38,208.65,113.4,195.04,517.1,Single-ply,SBD,M
Boys,124.74,15,Neal Richard,Pearland,113.85,185.97,115.67,204.12,505.76,Single-ply,SBD,M
Boys,124.74,16,Devyn Billiot,La Marque,123.38,199.58,108.86,170.1,478.54,Single-ply,SBD,M
Boys,124.74,17,Joey Longoria,Pearland,112.49,165.56,117.93,181.44,464.93,Single-ply,SBD,M
Boys,124.74,18,CJ Bench,Clute Brazoswood,114.76,183.7,97.52,176.9,458.13,Single-ply,SBD,M
Boys,124.74,19,Victor Esquivel,Clute Brazoswood,115.67,174.63,115.67,151.95,442.25,Single-ply,SBD,M
Boys,124.74,20,Brandon Flores,Pasadena Dobie,113.4,104.33,81.65,136.08,322.05,Single-ply,SBD,M
Boys,124.74,DQ,Markel Bright,La Porte,124.74,,,,,Single-ply,SBD,M
Boys,124.74,DQ,Young Truong,Pasadena Dobie,117.48,235.87,,,,Single-ply,SBD,M
Boys,124.74+,1,Alex Pina,Clute Brazoswood,125.19,251.74,161.03,215.46,628.23,Single-ply,SBD,M
Boys,124.74+,2,Cameron Duhon,Freeport Brazosport,159.21,240.4,131.54,244.94,616.89,Single-ply,SBD,M
Boys,124.74+,3,Dwayne Taylor,Texas City,137.44,219.99,165.56,204.12,589.67,Single-ply,SBD,M
Boys,124.74+,4,Darian Tryals,Texas City,141.97,233.6,120.2,226.8,580.6,Single-ply,SBD,M
Boys,124.74+,5,Luis Atilano,La Porte,128.37,215.46,124.74,199.58,539.77,Single-ply,SBD,M
Boys,124.74+,6,Bryan Hays,La Porte,135.17,181.44,124.74,176.9,483.08,Single-ply,SBD,M
Boys,124.74+,7,Arthur Robinson,Pasadena Dobie,139.25,95.25,77.11,99.79,272.16,Single-ply,SBD,M
Boys,124.74+,DQ,Austin Closs,Freeport Brazosport,125.19,,,,,Single-ply,SBD,M
